G17
G71
G90
$SC_DEFINES = 1
SC_SELECT_JOB[6]

(Begin Galvo parameters)
$SC_FIELDXMIN = -30
$SC_FIELDXMAX = 30
$SC_FIELDYMIN = -30
$SC_FIELDYMAX = 30
$SC_FIELDXGAIN = 1
$SC_FIELDYGAIN = 1
$SC_FIELDXOFFSET = 0
$SC_FIELDYOFFSET = 0
$SC_FIELDAXISSTATE = 3
(End Galvo parameters)

(Begin Pen 1 :  )
SC_TOOL_LOAD[1]
$SC_LASERPOWER = 1
$SC_FREQUENCY = 44.0
$SC_STDBYPERIOD = 0
$SC_JUMPSPEED = 9000
$SC_MARKSPEED = 2000
$SC_JUMPDELAY = 75
$SC_MARKDELAY = 150
$SC_POLYDELAY = 0
$SC_LASERONDELAY = 70
$SC_LASEROFFDELAY = 105
SC_TOOL_SAVE[1]
(End Pen 1 :  )

(Begin Main)
$SC_ArcStepMode = 1
$SC_DEFINES = 0
$SC_LoopCount = 1
SC_Start_Entity
SC_TOOL_LOAD[1]
CALL Figure1__

SC_End_Entity

SC_TOOL[0]
G0 X0 Y0
M2


DFS Figure1__

SC_TOOL[0]
G0 X-14.85 Y-5.275
SC_TOOL[1]
G1 X-14.8 Y-5.275
SC_TOOL[0]
G0 X-14.9 Y-5.225
SC_TOOL[1]
G1 X-14.8 Y-5.225
SC_TOOL[0]
G0 X-14.9 Y-5.175
SC_TOOL[1]
G1 X-14.75 Y-5.175
SC_TOOL[0]
G0 X-14.95 Y-5.125
SC_TOOL[1]
G1 X-14.85 Y-5.125
SC_TOOL[0]
G0 X-14.8 Y-5.125
SC_TOOL[1]
G1 X-14.75 Y-5.125
SC_TOOL[0]
G0 X-14.95 Y-5.075
SC_TOOL[1]
G1 X-14.9 Y-5.075
SC_TOOL[0]
G0 X-14.8 Y-5.075
SC_TOOL[1]
G1 X-14.75 Y-5.075
SC_TOOL[0]
G0 X-15.0 Y-5.025
SC_TOOL[1]
G1 X-14.9 Y-5.025
SC_TOOL[0]
G0 X-14.8 Y-5.025
SC_TOOL[1]
G1 X-14.75 Y-5.025
SC_TOOL[0]
G0 X-15.0 Y-4.975
SC_TOOL[1]
G1 X-14.9 Y-4.975
SC_TOOL[0]
G0 X-14.8 Y-4.975
SC_TOOL[1]
G1 X-14.75 Y-4.975
SC_TOOL[0]
G0 X-15.05 Y-4.925
SC_TOOL[1]
G1 X-14.95 Y-4.925
SC_TOOL[0]
G0 X-14.8 Y-4.925
SC_TOOL[1]
G1 X-14.75 Y-4.925
SC_TOOL[0]
G0 X-15.1 Y-4.875
SC_TOOL[1]
G1 X-14.9 Y-4.875
SC_TOOL[0]
G0 X-14.8 Y-4.875
SC_TOOL[1]
G1 X-14.7 Y-4.875
SC_TOOL[0]
G0 X-15.15 Y-4.825
SC_TOOL[1]
G1 X-15.0 Y-4.825
SC_TOOL[0]
G0 X-14.8 Y-4.825
SC_TOOL[1]
G1 X-14.7 Y-4.825
SC_TOOL[0]
G0 X-15.2 Y-4.775
SC_TOOL[1]
G1 X-14.7 Y-4.775
SC_TOOL[0]
G0 X-15.2 Y-4.725
SC_TOOL[1]
G1 X-15.05 Y-4.725
SC_TOOL[0]
G0 X-14.85 Y-4.725
SC_TOOL[1]
G1 X-14.7 Y-4.725
SC_TOOL[0]
G0 X-15.2 Y-4.675
SC_TOOL[1]
G1 X-15.15 Y-4.675
SC_TOOL[0]
G0 X-14.8 Y-4.675
SC_TOOL[1]
G1 X-14.7 Y-4.675
SC_TOOL[0]
G0 X-15.2 Y-4.625
SC_TOOL[1]
G1 X-15.1 Y-4.625
SC_TOOL[0]
G0 X-14.8 Y-4.625
SC_TOOL[1]
G1 X-14.7 Y-4.625
SC_TOOL[0]
G0 X-15.2 Y-4.575
SC_TOOL[1]
G1 X-15.0 Y-4.575
SC_TOOL[0]
G0 X-14.8 Y-4.575
SC_TOOL[1]
G1 X-14.7 Y-4.575
SC_TOOL[0]
G0 X-15.1 Y-4.525
SC_TOOL[1]
G1 X-14.7 Y-4.525
SC_TOOL[0]
G0 X-14.95 Y-4.475
SC_TOOL[1]
G1 X-14.7 Y-4.475
SC_TOOL[0]
G0 X-14.8 Y-4.425
SC_TOOL[1]
G1 X-14.7 Y-4.425
SC_TOOL[0]
G0 X-14.8 Y-4.375
SC_TOOL[1]
G1 X-14.75 Y-4.375
SC_TOOL[0]
G0 X-14.85 Y-4.325
SC_TOOL[1]
G1 X-14.75 Y-4.325
SC_TOOL[0]
G0 X-14.95 Y-4.275
SC_TOOL[1]
G1 X-14.8 Y-4.275
SC_TOOL[0]
G0 X-14.9 Y-4.225
SC_TOOL[1]
G1 X-14.8 Y-4.225
SC_TOOL[0]
G0 X-3.8999999999999986 Y-3.675
SC_TOOL[1]
G1 X-3.799999999999999 Y-3.675
SC_TOOL[0]
G0 X-3.8999999999999986 Y-3.625
SC_TOOL[1]
G1 X-3.799999999999999 Y-3.625
SC_TOOL[0]
G0 X-3.9499999999999993 Y-3.575
SC_TOOL[1]
G1 X-3.799999999999999 Y-3.575
SC_TOOL[0]
G0 X-3.9499999999999993 Y-3.525
SC_TOOL[1]
G1 X-3.799999999999999 Y-3.525
SC_TOOL[0]
G0 X-3.9499999999999993 Y-3.4749999999999996
SC_TOOL[1]
G1 X-3.799999999999999 Y-3.4749999999999996
SC_TOOL[0]
G0 X-3.9499999999999993 Y-3.425
SC_TOOL[1]
G1 X-3.799999999999999 Y-3.425
SC_TOOL[0]
G0 X-3.9499999999999993 Y-3.375
SC_TOOL[1]
G1 X-3.799999999999999 Y-3.375
SC_TOOL[0]
G0 X-3.9499999999999993 Y-3.3249999999999997
SC_TOOL[1]
G1 X-3.799999999999999 Y-3.3249999999999997
SC_TOOL[0]
G0 X-4.049999999999999 Y-3.275
SC_TOOL[1]
G1 X-3.799999999999999 Y-3.275
SC_TOOL[0]
G0 X-4.049999999999999 Y-3.225
SC_TOOL[1]
G1 X-3.9499999999999993 Y-3.225
SC_TOOL[0]
G0 X-3.8999999999999986 Y-3.225
SC_TOOL[1]
G1 X-3.799999999999999 Y-3.225
SC_TOOL[0]
G0 X-4.1 Y-3.175
SC_TOOL[1]
G1 X-4.0 Y-3.175
SC_TOOL[0]
G0 X-3.8999999999999986 Y-3.175
SC_TOOL[1]
G1 X-3.799999999999999 Y-3.175
SC_TOOL[0]
G0 X-4.1 Y-3.125
SC_TOOL[1]
G1 X-4.0 Y-3.125
SC_TOOL[0]
G0 X-3.8999999999999986 Y-3.125
SC_TOOL[1]
G1 X-3.799999999999999 Y-3.125
SC_TOOL[0]
G0 X-4.149999999999999 Y-3.0749999999999997
SC_TOOL[1]
G1 X-4.049999999999999 Y-3.0749999999999997
SC_TOOL[0]
G0 X-3.8999999999999986 Y-3.0749999999999997
SC_TOOL[1]
G1 X-3.799999999999999 Y-3.0749999999999997
SC_TOOL[0]
G0 X-4.199999999999999 Y-3.025
SC_TOOL[1]
G1 X-4.049999999999999 Y-3.025
SC_TOOL[0]
G0 X-3.8999999999999986 Y-3.025
SC_TOOL[1]
G1 X-3.75 Y-3.025
SC_TOOL[0]
G0 X-4.199999999999999 Y-2.9749999999999996
SC_TOOL[1]
G1 X-4.149999999999999 Y-2.9749999999999996
SC_TOOL[0]
G0 X-3.799999999999999 Y-2.9749999999999996
SC_TOOL[1]
G1 X-3.6999999999999993 Y-2.9749999999999996
SC_TOOL[0]
G0 X-4.25 Y-2.925
SC_TOOL[1]
G1 X-4.149999999999999 Y-2.925
SC_TOOL[0]
G0 X-3.799999999999999 Y-2.925
SC_TOOL[1]
G1 X-3.6999999999999993 Y-2.925
SC_TOOL[0]
G0 X-4.299999999999999 Y-2.875
SC_TOOL[1]
G1 X-4.199999999999999 Y-2.875
SC_TOOL[0]
G0 X-3.799999999999999 Y-2.875
SC_TOOL[1]
G1 X-3.6999999999999993 Y-2.875
SC_TOOL[0]
G0 X-4.299999999999999 Y-2.8249999999999997
SC_TOOL[1]
G1 X-4.25 Y-2.8249999999999997
SC_TOOL[0]
G0 X-3.799999999999999 Y-2.8249999999999997
SC_TOOL[1]
G1 X-3.6999999999999993 Y-2.8249999999999997
SC_TOOL[0]
G0 X-4.299999999999999 Y-2.775
SC_TOOL[1]
G1 X-4.25 Y-2.775
SC_TOOL[0]
G0 X-3.799999999999999 Y-2.775
SC_TOOL[1]
G1 X-3.6999999999999993 Y-2.775
SC_TOOL[0]
G0 X-4.299999999999999 Y-2.7249999999999996
SC_TOOL[1]
G1 X-4.25 Y-2.7249999999999996
SC_TOOL[0]
G0 X-3.799999999999999 Y-2.7249999999999996
SC_TOOL[1]
G1 X-3.6999999999999993 Y-2.7249999999999996
SC_TOOL[0]
G0 X-4.399999999999999 Y-2.675
SC_TOOL[1]
G1 X-4.25 Y-2.675
SC_TOOL[0]
G0 X-3.799999999999999 Y-2.675
SC_TOOL[1]
G1 X-3.6999999999999993 Y-2.675
SC_TOOL[0]
G0 X-4.399999999999999 Y-2.625
SC_TOOL[1]
G1 X-4.299999999999999 Y-2.625
SC_TOOL[0]
G0 X-3.799999999999999 Y-2.625
SC_TOOL[1]
G1 X-3.6999999999999993 Y-2.625
SC_TOOL[0]
G0 X-4.5 Y-2.5749999999999997
SC_TOOL[1]
G1 X-4.35 Y-2.5749999999999997
SC_TOOL[0]
G0 X-3.799999999999999 Y-2.5749999999999997
SC_TOOL[1]
G1 X-3.6499999999999986 Y-2.5749999999999997
SC_TOOL[0]
G0 X-4.5 Y-2.525
SC_TOOL[1]
G1 X-4.399999999999999 Y-2.525
SC_TOOL[0]
G0 X-3.6999999999999993 Y-2.525
SC_TOOL[1]
G1 X-3.6499999999999986 Y-2.525
SC_TOOL[0]
G0 X-4.5 Y-2.4749999999999996
SC_TOOL[1]
G1 X-4.399999999999999 Y-2.4749999999999996
SC_TOOL[0]
G0 X-3.6999999999999993 Y-2.4749999999999996
SC_TOOL[1]
G1 X-3.6499999999999986 Y-2.4749999999999996
SC_TOOL[0]
G0 X-4.5 Y-2.425
SC_TOOL[1]
G1 X-4.399999999999999 Y-2.425
SC_TOOL[0]
G0 X-3.6999999999999993 Y-2.425
SC_TOOL[1]
G1 X-3.6499999999999986 Y-2.425
SC_TOOL[0]
G0 X-4.5 Y-2.375
SC_TOOL[1]
G1 X-4.399999999999999 Y-2.375
SC_TOOL[0]
G0 X-3.6999999999999993 Y-2.375
SC_TOOL[1]
G1 X-3.6499999999999986 Y-2.375
SC_TOOL[0]
G0 X-4.5 Y-2.3249999999999997
SC_TOOL[1]
G1 X-4.399999999999999 Y-2.3249999999999997
SC_TOOL[0]
G0 X-3.6999999999999993 Y-2.3249999999999997
SC_TOOL[1]
G1 X-3.6499999999999986 Y-2.3249999999999997
SC_TOOL[0]
G0 X-4.5 Y-2.275
SC_TOOL[1]
G1 X-4.399999999999999 Y-2.275
SC_TOOL[0]
G0 X-3.6999999999999993 Y-2.275
SC_TOOL[1]
G1 X-3.6499999999999986 Y-2.275
SC_TOOL[0]
G0 X-4.5 Y-2.2249999999999996
SC_TOOL[1]
G1 X-4.399999999999999 Y-2.2249999999999996
SC_TOOL[0]
G0 X-3.6999999999999993 Y-2.2249999999999996
SC_TOOL[1]
G1 X-3.6499999999999986 Y-2.2249999999999996
SC_TOOL[0]
G0 X-4.5 Y-2.175
SC_TOOL[1]
G1 X-4.399999999999999 Y-2.175
SC_TOOL[0]
G0 X-3.6999999999999993 Y-2.175
SC_TOOL[1]
G1 X-3.6499999999999986 Y-2.175
SC_TOOL[0]
G0 X-4.5 Y-2.125
SC_TOOL[1]
G1 X-4.399999999999999 Y-2.125
SC_TOOL[0]
G0 X-3.6999999999999993 Y-2.125
SC_TOOL[1]
G1 X-3.6499999999999986 Y-2.125
SC_TOOL[0]
G0 X-4.549999999999999 Y-2.0749999999999997
SC_TOOL[1]
G1 X-4.399999999999999 Y-2.0749999999999997
SC_TOOL[0]
G0 X-3.6999999999999993 Y-2.0749999999999997
SC_TOOL[1]
G1 X-3.6499999999999986 Y-2.0749999999999997
SC_TOOL[0]
G0 X-4.549999999999999 Y-2.025
SC_TOOL[1]
G1 X-4.449999999999999 Y-2.025
SC_TOOL[0]
G0 X-3.6999999999999993 Y-2.025
SC_TOOL[1]
G1 X-3.5999999999999996 Y-2.025
SC_TOOL[0]
G0 X-4.6 Y-1.9749999999999996
SC_TOOL[1]
G1 X-4.5 Y-1.9749999999999996
SC_TOOL[0]
G0 X-3.6499999999999986 Y-1.9749999999999996
SC_TOOL[1]
G1 X-3.549999999999999 Y-1.9749999999999996
SC_TOOL[0]
G0 X-4.649999999999999 Y-1.9249999999999998
SC_TOOL[1]
G1 X-4.549999999999999 Y-1.9249999999999998
SC_TOOL[0]
G0 X-3.5999999999999996 Y-1.9249999999999998
SC_TOOL[1]
G1 X-3.549999999999999 Y-1.9249999999999998
SC_TOOL[0]
G0 X-4.649999999999999 Y-1.875
SC_TOOL[1]
G1 X-4.6 Y-1.875
SC_TOOL[0]
G0 X-3.5999999999999996 Y-1.875
SC_TOOL[1]
G1 X-3.549999999999999 Y-1.875
SC_TOOL[0]
G0 X-4.699999999999999 Y-1.8249999999999997
SC_TOOL[1]
G1 X-4.6 Y-1.8249999999999997
SC_TOOL[0]
G0 X-3.5999999999999996 Y-1.8249999999999997
SC_TOOL[1]
G1 X-3.549999999999999 Y-1.8249999999999997
SC_TOOL[0]
G0 X-4.75 Y-1.775
SC_TOOL[1]
G1 X-4.6 Y-1.775
SC_TOOL[0]
G0 X-3.5999999999999996 Y-1.775
SC_TOOL[1]
G1 X-3.549999999999999 Y-1.775
SC_TOOL[0]
G0 X-4.75 Y-1.7249999999999996
SC_TOOL[1]
G1 X-4.699999999999999 Y-1.7249999999999996
SC_TOOL[0]
G0 X-3.5999999999999996 Y-1.7249999999999996
SC_TOOL[1]
G1 X-3.549999999999999 Y-1.7249999999999996
SC_TOOL[0]
G0 X-4.75 Y-1.6749999999999998
SC_TOOL[1]
G1 X-4.699999999999999 Y-1.6749999999999998
SC_TOOL[0]
G0 X-3.5999999999999996 Y-1.6749999999999998
SC_TOOL[1]
G1 X-3.549999999999999 Y-1.6749999999999998
SC_TOOL[0]
G0 X-4.75 Y-1.625
SC_TOOL[1]
G1 X-4.699999999999999 Y-1.625
SC_TOOL[0]
G0 X-3.5999999999999996 Y-1.625
SC_TOOL[1]
G1 X-3.549999999999999 Y-1.625
SC_TOOL[0]
G0 X-4.799999999999999 Y-1.5749999999999997
SC_TOOL[1]
G1 X-4.699999999999999 Y-1.5749999999999997
SC_TOOL[0]
G0 X-3.5999999999999996 Y-1.5749999999999997
SC_TOOL[1]
G1 X-3.549999999999999 Y-1.5749999999999997
SC_TOOL[0]
G0 X-4.85 Y-1.525
SC_TOOL[1]
G1 X-4.75 Y-1.525
SC_TOOL[0]
G0 X-3.5999999999999996 Y-1.525
SC_TOOL[1]
G1 X-3.549999999999999 Y-1.525
SC_TOOL[0]
G0 X-4.85 Y-1.4749999999999996
SC_TOOL[1]
G1 X-4.75 Y-1.4749999999999996
SC_TOOL[0]
G0 X-3.5999999999999996 Y-1.4749999999999996
SC_TOOL[1]
G1 X-3.549999999999999 Y-1.4749999999999996
SC_TOOL[0]
G0 X-4.899999999999999 Y-1.4249999999999998
SC_TOOL[1]
G1 X-4.75 Y-1.4249999999999998
SC_TOOL[0]
G0 X-3.5999999999999996 Y-1.4249999999999998
SC_TOOL[1]
G1 X-3.549999999999999 Y-1.4249999999999998
SC_TOOL[0]
G0 X-4.949999999999999 Y-1.375
SC_TOOL[1]
G1 X-4.799999999999999 Y-1.375
SC_TOOL[0]
G0 X-3.5999999999999996 Y-1.375
SC_TOOL[1]
G1 X-3.549999999999999 Y-1.375
SC_TOOL[0]
G0 X-4.949999999999999 Y-1.3250000000000002
SC_TOOL[1]
G1 X-4.85 Y-1.3250000000000002
SC_TOOL[0]
G0 X-3.5999999999999996 Y-1.3250000000000002
SC_TOOL[1]
G1 X-3.549999999999999 Y-1.3250000000000002
SC_TOOL[0]
G0 X-5.0 Y-1.2749999999999995
SC_TOOL[1]
G1 X-4.899999999999999 Y-1.2749999999999995
SC_TOOL[0]
G0 X-3.5999999999999996 Y-1.2749999999999995
SC_TOOL[1]
G1 X-3.549999999999999 Y-1.2749999999999995
SC_TOOL[0]
G0 X-5.0 Y-1.2249999999999996
SC_TOOL[1]
G1 X-4.949999999999999 Y-1.2249999999999996
SC_TOOL[0]
G0 X-3.5999999999999996 Y-1.2249999999999996
SC_TOOL[1]
G1 X-3.549999999999999 Y-1.2249999999999996
SC_TOOL[0]
G0 X-5.049999999999999 Y-1.1749999999999998
SC_TOOL[1]
G1 X-4.949999999999999 Y-1.1749999999999998
SC_TOOL[0]
G0 X-3.5999999999999996 Y-1.1749999999999998
SC_TOOL[1]
G1 X-3.549999999999999 Y-1.1749999999999998
SC_TOOL[0]
G0 X-5.1 Y-1.125
SC_TOOL[1]
G1 X-5.0 Y-1.125
SC_TOOL[0]
G0 X-3.5999999999999996 Y-1.125
SC_TOOL[1]
G1 X-3.549999999999999 Y-1.125
SC_TOOL[0]
G0 X-5.1 Y-1.0750000000000002
SC_TOOL[1]
G1 X-5.0 Y-1.0750000000000002
SC_TOOL[0]
G0 X-3.5999999999999996 Y-1.0750000000000002
SC_TOOL[1]
G1 X-3.549999999999999 Y-1.0750000000000002
SC_TOOL[0]
G0 X-5.1 Y-1.0249999999999995
SC_TOOL[1]
G1 X-5.0 Y-1.0249999999999995
SC_TOOL[0]
G0 X-3.5999999999999996 Y-1.0249999999999995
SC_TOOL[1]
G1 X-3.549999999999999 Y-1.0249999999999995
SC_TOOL[0]
G0 X-5.149999999999999 Y-0.9749999999999996
SC_TOOL[1]
G1 X-5.049999999999999 Y-0.9749999999999996
SC_TOOL[0]
G0 X-3.5999999999999996 Y-0.9749999999999996
SC_TOOL[1]
G1 X-3.549999999999999 Y-0.9749999999999996
SC_TOOL[0]
G0 X-5.149999999999999 Y-0.9249999999999998
SC_TOOL[1]
G1 X-5.1 Y-0.9249999999999998
SC_TOOL[0]
G0 X-3.5999999999999996 Y-0.9249999999999998
SC_TOOL[1]
G1 X-3.549999999999999 Y-0.9249999999999998
SC_TOOL[0]
G0 X-5.199999999999999 Y-0.875
SC_TOOL[1]
G1 X-5.1 Y-0.875
SC_TOOL[0]
G0 X-3.5999999999999996 Y-0.875
SC_TOOL[1]
G1 X-3.549999999999999 Y-0.875
SC_TOOL[0]
G0 X-5.199999999999999 Y-0.8250000000000002
SC_TOOL[1]
G1 X-5.1 Y-0.8250000000000002
SC_TOOL[0]
G0 X-3.5999999999999996 Y-0.8250000000000002
SC_TOOL[1]
G1 X-3.549999999999999 Y-0.8250000000000002
SC_TOOL[0]
G0 X-5.25 Y-0.7749999999999995
SC_TOOL[1]
G1 X-5.1 Y-0.7749999999999995
SC_TOOL[0]
G0 X-3.5999999999999996 Y-0.7749999999999995
SC_TOOL[1]
G1 X-3.549999999999999 Y-0.7749999999999995
SC_TOOL[0]
G0 X-5.25 Y-0.7249999999999996
SC_TOOL[1]
G1 X-5.149999999999999 Y-0.7249999999999996
SC_TOOL[0]
G0 X-3.5999999999999996 Y-0.7249999999999996
SC_TOOL[1]
G1 X-3.549999999999999 Y-0.7249999999999996
SC_TOOL[0]
G0 X-5.25 Y-0.6749999999999998
SC_TOOL[1]
G1 X-5.199999999999999 Y-0.6749999999999998
SC_TOOL[0]
G0 X-3.5999999999999996 Y-0.6749999999999998
SC_TOOL[1]
G1 X-3.549999999999999 Y-0.6749999999999998
SC_TOOL[0]
G0 X-5.25 Y-0.625
SC_TOOL[1]
G1 X-5.199999999999999 Y-0.625
SC_TOOL[0]
G0 X-3.5999999999999996 Y-0.625
SC_TOOL[1]
G1 X-3.549999999999999 Y-0.625
SC_TOOL[0]
G0 X-5.299999999999999 Y-0.5749999999999993
SC_TOOL[1]
G1 X-5.199999999999999 Y-0.5749999999999993
SC_TOOL[0]
G0 X-3.5999999999999996 Y-0.5749999999999993
SC_TOOL[1]
G1 X-3.549999999999999 Y-0.5749999999999993
SC_TOOL[0]
G0 X-5.35 Y-0.5249999999999995
SC_TOOL[1]
G1 X-5.25 Y-0.5249999999999995
SC_TOOL[0]
G0 X-3.5999999999999996 Y-0.5249999999999995
SC_TOOL[1]
G1 X-3.549999999999999 Y-0.5249999999999995
SC_TOOL[0]
G0 X-5.399999999999999 Y-0.47499999999999964
SC_TOOL[1]
G1 X-5.299999999999999 Y-0.47499999999999964
SC_TOOL[0]
G0 X-3.5999999999999996 Y-0.47499999999999964
SC_TOOL[1]
G1 X-3.549999999999999 Y-0.47499999999999964
SC_TOOL[0]
G0 X-5.449999999999999 Y-0.4249999999999998
SC_TOOL[1]
G1 X-5.35 Y-0.4249999999999998
SC_TOOL[0]
G0 X-3.5999999999999996 Y-0.4249999999999998
SC_TOOL[1]
G1 X-3.549999999999999 Y-0.4249999999999998
SC_TOOL[0]
G0 X-5.449999999999999 Y-0.375
SC_TOOL[1]
G1 X-5.35 Y-0.375
SC_TOOL[0]
G0 X-3.5999999999999996 Y-0.375
SC_TOOL[1]
G1 X-3.549999999999999 Y-0.375
SC_TOOL[0]
G0 X-5.5 Y-0.3249999999999993
SC_TOOL[1]
G1 X-5.35 Y-0.3249999999999993
SC_TOOL[0]
G0 X-3.5999999999999996 Y-0.3249999999999993
SC_TOOL[1]
G1 X-3.549999999999999 Y-0.3249999999999993
SC_TOOL[0]
G0 X-5.549999999999999 Y-0.27499999999999947
SC_TOOL[1]
G1 X-5.449999999999999 Y-0.27499999999999947
SC_TOOL[0]
G0 X-3.5999999999999996 Y-0.27499999999999947
SC_TOOL[1]
G1 X-3.549999999999999 Y-0.27499999999999947
SC_TOOL[0]
G0 X-5.5 Y-0.22499999999999964
SC_TOOL[1]
G1 X-5.449999999999999 Y-0.22499999999999964
SC_TOOL[0]
G0 X-3.5999999999999996 Y-0.22499999999999964
SC_TOOL[1]
G1 X-3.549999999999999 Y-0.22499999999999964
SC_TOOL[0]
G0 X-5.549999999999999 Y-0.17499999999999982
SC_TOOL[1]
G1 X-5.449999999999999 Y-0.17499999999999982
SC_TOOL[0]
G0 X-3.5999999999999996 Y-0.17499999999999982
SC_TOOL[1]
G1 X-3.549999999999999 Y-0.17499999999999982
SC_TOOL[0]
G0 X-5.549999999999999 Y-0.125
SC_TOOL[1]
G1 X-5.449999999999999 Y-0.125
SC_TOOL[0]
G0 X-3.5999999999999996 Y-0.125
SC_TOOL[1]
G1 X-3.549999999999999 Y-0.125
SC_TOOL[0]
G0 X-5.6 Y-0.07499999999999929
SC_TOOL[1]
G1 X-5.5 Y-0.07499999999999929
SC_TOOL[0]
G0 X-3.5999999999999996 Y-0.07499999999999929
SC_TOOL[1]
G1 X-3.549999999999999 Y-0.07499999999999929
SC_TOOL[0]
G0 X-0.8499999999999996 Y-0.07499999999999929
SC_TOOL[1]
G1 X-0.5999999999999996 Y-0.07499999999999929
SC_TOOL[0]
G0 X-5.6 Y-0.024999999999999467
SC_TOOL[1]
G1 X-5.549999999999999 Y-0.024999999999999467
SC_TOOL[0]
G0 X-3.5999999999999996 Y-0.024999999999999467
SC_TOOL[1]
G1 X-3.549999999999999 Y-0.024999999999999467
SC_TOOL[0]
G0 X-0.8499999999999996 Y-0.024999999999999467
SC_TOOL[1]
G1 X-0.75 Y-0.024999999999999467
SC_TOOL[0]
G0 X-0.6999999999999993 Y-0.024999999999999467
SC_TOOL[1]
G1 X-0.5999999999999996 Y-0.024999999999999467
SC_TOOL[0]
G0 X-5.6 Y0.025000000000000355
SC_TOOL[1]
G1 X-5.549999999999999 Y0.025000000000000355
SC_TOOL[0]
G0 X-3.5999999999999996 Y0.025000000000000355
SC_TOOL[1]
G1 X-3.549999999999999 Y0.025000000000000355
SC_TOOL[0]
G0 X-0.8999999999999986 Y0.025000000000000355
SC_TOOL[1]
G1 X-0.7999999999999989 Y0.025000000000000355
SC_TOOL[0]
G0 X-0.6499999999999986 Y0.025000000000000355
SC_TOOL[1]
G1 X-0.5999999999999996 Y0.025000000000000355
SC_TOOL[0]
G0 X-5.649999999999999 Y0.07500000000000018
SC_TOOL[1]
G1 X-5.549999999999999 Y0.07500000000000018
SC_TOOL[0]
G0 X-3.5999999999999996 Y0.07500000000000018
SC_TOOL[1]
G1 X-3.549999999999999 Y0.07500000000000018
SC_TOOL[0]
G0 X-0.9499999999999993 Y0.07500000000000018
SC_TOOL[1]
G1 X-0.8499999999999996 Y0.07500000000000018
SC_TOOL[0]
G0 X-0.6499999999999986 Y0.07500000000000018
SC_TOOL[1]
G1 X-0.5999999999999996 Y0.07500000000000018
SC_TOOL[0]
G0 X-5.699999999999999 Y0.125
SC_TOOL[1]
G1 X-5.549999999999999 Y0.125
SC_TOOL[0]
G0 X-3.5999999999999996 Y0.125
SC_TOOL[1]
G1 X-3.549999999999999 Y0.125
SC_TOOL[0]
G0 X-1.0 Y0.125
SC_TOOL[1]
G1 X-0.8499999999999996 Y0.125
SC_TOOL[0]
G0 X-0.6499999999999986 Y0.125
SC_TOOL[1]
G1 X-0.5999999999999996 Y0.125
SC_TOOL[0]
G0 X-5.699999999999999 Y0.1750000000000007
SC_TOOL[1]
G1 X-5.649999999999999 Y0.1750000000000007
SC_TOOL[0]
G0 X-3.5999999999999996 Y0.1750000000000007
SC_TOOL[1]
G1 X-3.549999999999999 Y0.1750000000000007
SC_TOOL[0]
G0 X-1.0 Y0.1750000000000007
SC_TOOL[1]
G1 X-0.9499999999999993 Y0.1750000000000007
SC_TOOL[0]
G0 X-0.6499999999999986 Y0.1750000000000007
SC_TOOL[1]
G1 X-0.5999999999999996 Y0.1750000000000007
SC_TOOL[0]
G0 X-5.699999999999999 Y0.22500000000000053
SC_TOOL[1]
G1 X-5.649999999999999 Y0.22500000000000053
SC_TOOL[0]
G0 X-3.5999999999999996 Y0.22500000000000053
SC_TOOL[1]
G1 X-3.549999999999999 Y0.22500000000000053
SC_TOOL[0]
G0 X-1.0 Y0.22500000000000053
SC_TOOL[1]
G1 X-0.9499999999999993 Y0.22500000000000053
SC_TOOL[0]
G0 X-0.6499999999999986 Y0.22500000000000053
SC_TOOL[1]
G1 X-0.5999999999999996 Y0.22500000000000053
SC_TOOL[0]
G0 X-10.1 Y0.27500000000000036
SC_TOOL[1]
G1 X-9.899999999999999 Y0.27500000000000036
SC_TOOL[0]
G0 X-5.799999999999999 Y0.27500000000000036
SC_TOOL[1]
G1 X-5.649999999999999 Y0.27500000000000036
SC_TOOL[0]
G0 X-3.5999999999999996 Y0.27500000000000036
SC_TOOL[1]
G1 X-3.549999999999999 Y0.27500000000000036
SC_TOOL[0]
G0 X-1.0999999999999996 Y0.27500000000000036
SC_TOOL[1]
G1 X-0.9499999999999993 Y0.27500000000000036
SC_TOOL[0]
G0 X-0.6499999999999986 Y0.27500000000000036
SC_TOOL[1]
G1 X-0.5 Y0.27500000000000036
SC_TOOL[0]
G0 X-10.05 Y0.3250000000000002
SC_TOOL[1]
G1 X-9.85 Y0.3250000000000002
SC_TOOL[0]
G0 X-5.799999999999999 Y0.3250000000000002
SC_TOOL[1]
G1 X-5.699999999999999 Y0.3250000000000002
SC_TOOL[0]
G0 X-3.5999999999999996 Y0.3250000000000002
SC_TOOL[1]
G1 X-3.549999999999999 Y0.3250000000000002
SC_TOOL[0]
G0 X-1.0999999999999996 Y0.3250000000000002
SC_TOOL[1]
G1 X-1.049999999999999 Y0.3250000000000002
SC_TOOL[0]
G0 X-0.5999999999999996 Y0.3250000000000002
SC_TOOL[1]
G1 X-0.5 Y0.3250000000000002
SC_TOOL[0]
G0 X-10.05 Y0.375
SC_TOOL[1]
G1 X-9.8 Y0.375
SC_TOOL[0]
G0 X-5.799999999999999 Y0.375
SC_TOOL[1]
G1 X-5.699999999999999 Y0.375
SC_TOOL[0]
G0 X-3.5999999999999996 Y0.375
SC_TOOL[1]
G1 X-3.549999999999999 Y0.375
SC_TOOL[0]
G0 X-1.0999999999999996 Y0.375
SC_TOOL[1]
G1 X-1.049999999999999 Y0.375
SC_TOOL[0]
G0 X-0.5999999999999996 Y0.375
SC_TOOL[1]
G1 X-0.5 Y0.375
SC_TOOL[0]
G0 X-10.05 Y0.4250000000000007
SC_TOOL[1]
G1 X-9.95 Y0.4250000000000007
SC_TOOL[0]
G0 X-9.85 Y0.4250000000000007
SC_TOOL[1]
G1 X-9.8 Y0.4250000000000007
SC_TOOL[0]
G0 X-5.85 Y0.4250000000000007
SC_TOOL[1]
G1 X-5.699999999999999 Y0.4250000000000007
SC_TOOL[0]
G0 X-3.5999999999999996 Y0.4250000000000007
SC_TOOL[1]
G1 X-3.549999999999999 Y0.4250000000000007
SC_TOOL[0]
G0 X-1.1499999999999986 Y0.4250000000000007
SC_TOOL[1]
G1 X-1.049999999999999 Y0.4250000000000007
SC_TOOL[0]
G0 X-0.5999999999999996 Y0.4250000000000007
SC_TOOL[1]
G1 X-0.5 Y0.4250000000000007
SC_TOOL[0]
G0 X-10.05 Y0.47500000000000053
SC_TOOL[1]
G1 X-9.95 Y0.47500000000000053
SC_TOOL[0]
G0 X-9.85 Y0.47500000000000053
SC_TOOL[1]
G1 X-9.8 Y0.47500000000000053
SC_TOOL[0]
G0 X-5.85 Y0.47500000000000053
SC_TOOL[1]
G1 X-5.75 Y0.47500000000000053
SC_TOOL[0]
G0 X-3.5999999999999996 Y0.47500000000000053
SC_TOOL[1]
G1 X-3.549999999999999 Y0.47500000000000053
SC_TOOL[0]
G0 X-1.1999999999999993 Y0.47500000000000053
SC_TOOL[1]
G1 X-1.049999999999999 Y0.47500000000000053
SC_TOOL[0]
G0 X-0.5999999999999996 Y0.47500000000000053
SC_TOOL[1]
G1 X-0.5 Y0.47500000000000053
SC_TOOL[0]
G0 X-10.05 Y0.5250000000000004
SC_TOOL[1]
G1 X-9.95 Y0.5250000000000004
SC_TOOL[0]
G0 X-9.85 Y0.5250000000000004
SC_TOOL[1]
G1 X-9.8 Y0.5250000000000004
SC_TOOL[0]
G0 X-9.6 Y0.5250000000000004
SC_TOOL[1]
G1 X-8.85 Y0.5250000000000004
SC_TOOL[0]
G0 X-5.9 Y0.5250000000000004
SC_TOOL[1]
G1 X-5.799999999999999 Y0.5250000000000004
SC_TOOL[0]
G0 X-3.5999999999999996 Y0.5250000000000004
SC_TOOL[1]
G1 X-3.549999999999999 Y0.5250000000000004
SC_TOOL[0]
G0 X-1.25 Y0.5250000000000004
SC_TOOL[1]
G1 X-1.0999999999999996 Y0.5250000000000004
SC_TOOL[0]
G0 X-0.5999999999999996 Y0.5250000000000004
SC_TOOL[1]
G1 X-0.5 Y0.5250000000000004
SC_TOOL[0]
G0 X-10.05 Y0.5750000000000002
SC_TOOL[1]
G1 X-9.95 Y0.5750000000000002
SC_TOOL[0]
G0 X-9.85 Y0.5750000000000002
SC_TOOL[1]
G1 X-9.75 Y0.5750000000000002
SC_TOOL[0]
G0 X-9.6 Y0.5750000000000002
SC_TOOL[1]
G1 X-9.5 Y0.5750000000000002
SC_TOOL[0]
G0 X-5.949999999999999 Y0.5750000000000002
SC_TOOL[1]
G1 X-5.799999999999999 Y0.5750000000000002
SC_TOOL[0]
G0 X-3.5999999999999996 Y0.5750000000000002
SC_TOOL[1]
G1 X-3.549999999999999 Y0.5750000000000002
SC_TOOL[0]
G0 X-1.3499999999999996 Y0.5750000000000002
SC_TOOL[1]
G1 X-1.1999999999999993 Y0.5750000000000002
SC_TOOL[0]
G0 X-0.5499999999999989 Y0.5750000000000002
SC_TOOL[1]
G1 X-0.4499999999999993 Y0.5750000000000002
SC_TOOL[0]
G0 X-10.2 Y0.625
SC_TOOL[1]
G1 X-9.55 Y0.625
SC_TOOL[0]
G0 X-5.949999999999999 Y0.625
SC_TOOL[1]
G1 X-5.85 Y0.625
SC_TOOL[0]
G0 X-3.5999999999999996 Y0.625
SC_TOOL[1]
G1 X-3.549999999999999 Y0.625
SC_TOOL[0]
G0 X-1.3499999999999996 Y0.625
SC_TOOL[1]
G1 X-1.299999999999999 Y0.625
SC_TOOL[0]
G0 X-0.5 Y0.625
SC_TOOL[1]
G1 X-0.4499999999999993 Y0.625
SC_TOOL[0]
G0 X-10.25 Y0.6750000000000007
SC_TOOL[1]
G1 X-10.149999999999999 Y0.6750000000000007
SC_TOOL[0]
G0 X-10.05 Y0.6750000000000007
SC_TOOL[1]
G1 X-9.899999999999999 Y0.6750000000000007
SC_TOOL[0]
G0 X-9.8 Y0.6750000000000007
SC_TOOL[1]
G1 X-9.649999999999999 Y0.6750000000000007
SC_TOOL[0]
G0 X-5.949999999999999 Y0.6750000000000007
SC_TOOL[1]
G1 X-5.9 Y0.6750000000000007
SC_TOOL[0]
G0 X-3.5999999999999996 Y0.6750000000000007
SC_TOOL[1]
G1 X-3.549999999999999 Y0.6750000000000007
SC_TOOL[0]
G0 X-1.3499999999999996 Y0.6750000000000007
SC_TOOL[1]
G1 X-1.299999999999999 Y0.6750000000000007
SC_TOOL[0]
G0 X-0.5 Y0.6750000000000007
SC_TOOL[1]
G1 X-0.4499999999999993 Y0.6750000000000007
SC_TOOL[0]
G0 X-10.3 Y0.7250000000000005
SC_TOOL[1]
G1 X-10.149999999999999 Y0.7250000000000005
SC_TOOL[0]
G0 X-10.0 Y0.7250000000000005
SC_TOOL[1]
G1 X-9.899999999999999 Y0.7250000000000005
SC_TOOL[0]
G0 X-9.75 Y0.7250000000000005
SC_TOOL[1]
G1 X-9.6 Y0.7250000000000005
SC_TOOL[0]
G0 X-5.949999999999999 Y0.7250000000000005
SC_TOOL[1]
G1 X-5.9 Y0.7250000000000005
SC_TOOL[0]
G0 X-3.5999999999999996 Y0.7250000000000005
SC_TOOL[1]
G1 X-3.549999999999999 Y0.7250000000000005
SC_TOOL[0]
G0 X-1.3999999999999986 Y0.7250000000000005
SC_TOOL[1]
G1 X-1.299999999999999 Y0.7250000000000005
SC_TOOL[0]
G0 X-0.5 Y0.7250000000000005
SC_TOOL[1]
G1 X-0.3999999999999986 Y0.7250000000000005
SC_TOOL[0]
G0 X-10.35 Y0.7750000000000004
SC_TOOL[1]
G1 X-10.25 Y0.7750000000000004
SC_TOOL[0]
G0 X-9.95 Y0.7750000000000004
SC_TOOL[1]
G1 X-9.899999999999999 Y0.7750000000000004
SC_TOOL[0]
G0 X-9.7 Y0.7750000000000004
SC_TOOL[1]
G1 X-9.6 Y0.7750000000000004
SC_TOOL[0]
G0 X-5.949999999999999 Y0.7750000000000004
SC_TOOL[1]
G1 X-5.9 Y0.7750000000000004
SC_TOOL[0]
G0 X-3.5999999999999996 Y0.7750000000000004
SC_TOOL[1]
G1 X-3.549999999999999 Y0.7750000000000004
SC_TOOL[0]
G0 X-1.4499999999999993 Y0.7750000000000004
SC_TOOL[1]
G1 X-1.3499999999999996 Y0.7750000000000004
SC_TOOL[0]
G0 X-0.4499999999999993 Y0.7750000000000004
SC_TOOL[1]
G1 X-0.34999999999999964 Y0.7750000000000004
SC_TOOL[0]
G0 X-10.399999999999999 Y0.8250000000000002
SC_TOOL[1]
G1 X-10.25 Y0.8250000000000002
SC_TOOL[0]
G0 X-9.95 Y0.8250000000000002
SC_TOOL[1]
G1 X-9.899999999999999 Y0.8250000000000002
SC_TOOL[0]
G0 X-9.7 Y0.8250000000000002
SC_TOOL[1]
G1 X-9.55 Y0.8250000000000002
SC_TOOL[0]
G0 X-6.0 Y0.8250000000000002
SC_TOOL[1]
G1 X-5.9 Y0.8250000000000002
SC_TOOL[0]
G0 X-3.5999999999999996 Y0.8250000000000002
SC_TOOL[1]
G1 X-3.549999999999999 Y0.8250000000000002
SC_TOOL[0]
G0 X-1.5 Y0.8250000000000002
SC_TOOL[1]
G1 X-1.3999999999999986 Y0.8250000000000002
SC_TOOL[0]
G0 X-0.3999999999999986 Y0.8250000000000002
SC_TOOL[1]
G1 X-0.34999999999999964 Y0.8250000000000002
SC_TOOL[0]
G0 X-10.45 Y0.875
SC_TOOL[1]
G1 X-10.3 Y0.875
SC_TOOL[0]
G0 X-9.95 Y0.875
SC_TOOL[1]
G1 X-9.899999999999999 Y0.875
SC_TOOL[0]
G0 X-9.649999999999999 Y0.875
SC_TOOL[1]
G1 X-9.55 Y0.875
SC_TOOL[0]
G0 X-6.049999999999999 Y0.875
SC_TOOL[1]
G1 X-5.949999999999999 Y0.875
SC_TOOL[0]
G0 X-3.5999999999999996 Y0.875
SC_TOOL[1]
G1 X-3.549999999999999 Y0.875
SC_TOOL[0]
G0 X-1.549999999999999 Y0.875
SC_TOOL[1]
G1 X-1.4499999999999993 Y0.875
SC_TOOL[0]
G0 X-0.3999999999999986 Y0.875
SC_TOOL[1]
G1 X-0.34999999999999964 Y0.875
SC_TOOL[0]
G0 X-10.5 Y0.9250000000000007
SC_TOOL[1]
G1 X-10.399999999999999 Y0.9250000000000007
SC_TOOL[0]
G0 X-9.95 Y0.9250000000000007
SC_TOOL[1]
G1 X-9.899999999999999 Y0.9250000000000007
SC_TOOL[0]
G0 X-9.6 Y0.9250000000000007
SC_TOOL[1]
G1 X-9.55 Y0.9250000000000007
SC_TOOL[0]
G0 X-6.049999999999999 Y0.9250000000000007
SC_TOOL[1]
G1 X-6.0 Y0.9250000000000007
SC_TOOL[0]
G0 X-3.5999999999999996 Y0.9250000000000007
SC_TOOL[1]
G1 X-3.549999999999999 Y0.9250000000000007
SC_TOOL[0]
G0 X-1.5999999999999996 Y0.9250000000000007
SC_TOOL[1]
G1 X-1.5 Y0.9250000000000007
SC_TOOL[0]
G0 X-0.3999999999999986 Y0.9250000000000007
SC_TOOL[1]
G1 X-0.34999999999999964 Y0.9250000000000007
SC_TOOL[0]
G0 X-10.55 Y0.9750000000000005
SC_TOOL[1]
G1 X-10.399999999999999 Y0.9750000000000005
SC_TOOL[0]
G0 X-9.95 Y0.9750000000000005
SC_TOOL[1]
G1 X-9.899999999999999 Y0.9750000000000005
SC_TOOL[0]
G0 X-9.6 Y0.9750000000000005
SC_TOOL[1]
G1 X-9.55 Y0.9750000000000005
SC_TOOL[0]
G0 X-6.15 Y0.9750000000000005
SC_TOOL[1]
G1 X-6.0 Y0.9750000000000005
SC_TOOL[0]
G0 X-3.5999999999999996 Y0.9750000000000005
SC_TOOL[1]
G1 X-3.549999999999999 Y0.9750000000000005
SC_TOOL[0]
G0 X-1.5999999999999996 Y0.9750000000000005
SC_TOOL[1]
G1 X-1.549999999999999 Y0.9750000000000005
SC_TOOL[0]
G0 X-0.3999999999999986 Y0.9750000000000005
SC_TOOL[1]
G1 X-0.34999999999999964 Y0.9750000000000005
SC_TOOL[0]
G0 X-10.55 Y1.0250000000000004
SC_TOOL[1]
G1 X-10.5 Y1.0250000000000004
SC_TOOL[0]
G0 X-9.95 Y1.0250000000000004
SC_TOOL[1]
G1 X-9.85 Y1.0250000000000004
SC_TOOL[0]
G0 X-9.6 Y1.0250000000000004
SC_TOOL[1]
G1 X-9.55 Y1.0250000000000004
SC_TOOL[0]
G0 X-6.15 Y1.0250000000000004
SC_TOOL[1]
G1 X-6.049999999999999 Y1.0250000000000004
SC_TOOL[0]
G0 X-3.5999999999999996 Y1.0250000000000004
SC_TOOL[1]
G1 X-3.549999999999999 Y1.0250000000000004
SC_TOOL[0]
G0 X-1.6499999999999986 Y1.0250000000000004
SC_TOOL[1]
G1 X-1.549999999999999 Y1.0250000000000004
SC_TOOL[0]
G0 X-0.3999999999999986 Y1.0250000000000004
SC_TOOL[1]
G1 X-0.34999999999999964 Y1.0250000000000004
SC_TOOL[0]
G0 X8.150000000000002 Y1.0250000000000004
SC_TOOL[1]
G1 X9.150000000000002 Y1.0250000000000004
SC_TOOL[0]
G0 X-10.6 Y1.0750000000000002
SC_TOOL[1]
G1 X-10.5 Y1.0750000000000002
SC_TOOL[0]
G0 X-9.95 Y1.0750000000000002
SC_TOOL[1]
G1 X-9.8 Y1.0750000000000002
SC_TOOL[0]
G0 X-9.6 Y1.0750000000000002
SC_TOOL[1]
G1 X-9.55 Y1.0750000000000002
SC_TOOL[0]
G0 X-6.15 Y1.0750000000000002
SC_TOOL[1]
G1 X-6.049999999999999 Y1.0750000000000002
SC_TOOL[0]
G0 X-3.5999999999999996 Y1.0750000000000002
SC_TOOL[1]
G1 X-3.549999999999999 Y1.0750000000000002
SC_TOOL[0]
G0 X-1.6999999999999993 Y1.0750000000000002
SC_TOOL[1]
G1 X-1.549999999999999 Y1.0750000000000002
SC_TOOL[0]
G0 X-0.3999999999999986 Y1.0750000000000002
SC_TOOL[1]
G1 X-0.34999999999999964 Y1.0750000000000002
SC_TOOL[0]
G0 X8.100000000000001 Y1.0750000000000002
SC_TOOL[1]
G1 X9.25 Y1.0750000000000002
SC_TOOL[0]
G0 X-10.649999999999999 Y1.125
SC_TOOL[1]
G1 X-10.55 Y1.125
SC_TOOL[0]
G0 X-9.85 Y1.125
SC_TOOL[1]
G1 X-9.8 Y1.125
SC_TOOL[0]
G0 X-9.6 Y1.125
SC_TOOL[1]
G1 X-9.55 Y1.125
SC_TOOL[0]
G0 X-6.199999999999999 Y1.125
SC_TOOL[1]
G1 X-6.049999999999999 Y1.125
SC_TOOL[0]
G0 X-3.5999999999999996 Y1.125
SC_TOOL[1]
G1 X-3.549999999999999 Y1.125
SC_TOOL[0]
G0 X-1.6999999999999993 Y1.125
SC_TOOL[1]
G1 X-1.6499999999999986 Y1.125
SC_TOOL[0]
G0 X-0.3999999999999986 Y1.125
SC_TOOL[1]
G1 X-0.34999999999999964 Y1.125
SC_TOOL[0]
G0 X8.100000000000001 Y1.125
SC_TOOL[1]
G1 X8.150000000000002 Y1.125
SC_TOOL[0]
G0 X9.200000000000003 Y1.125
SC_TOOL[1]
G1 X9.3 Y1.125
SC_TOOL[0]
G0 X-10.7 Y1.1750000000000007
SC_TOOL[1]
G1 X-10.6 Y1.1750000000000007
SC_TOOL[0]
G0 X-9.85 Y1.1750000000000007
SC_TOOL[1]
G1 X-9.8 Y1.1750000000000007
SC_TOOL[0]
G0 X-9.6 Y1.1750000000000007
SC_TOOL[1]
G1 X-9.55 Y1.1750000000000007
SC_TOOL[0]
G0 X-6.199999999999999 Y1.1750000000000007
SC_TOOL[1]
G1 X-6.1 Y1.1750000000000007
SC_TOOL[0]
G0 X-3.5999999999999996 Y1.1750000000000007
SC_TOOL[1]
G1 X-3.549999999999999 Y1.1750000000000007
SC_TOOL[0]
G0 X-1.6999999999999993 Y1.1750000000000007
SC_TOOL[1]
G1 X-1.6499999999999986 Y1.1750000000000007
SC_TOOL[0]
G0 X-0.3999999999999986 Y1.1750000000000007
SC_TOOL[1]
G1 X-0.34999999999999964 Y1.1750000000000007
SC_TOOL[0]
G0 X8.100000000000001 Y1.1750000000000007
SC_TOOL[1]
G1 X8.150000000000002 Y1.1750000000000007
SC_TOOL[0]
G0 X9.25 Y1.1750000000000007
SC_TOOL[1]
G1 X9.350000000000001 Y1.1750000000000007
SC_TOOL[0]
G0 X-10.75 Y1.2250000000000005
SC_TOOL[1]
G1 X-10.649999999999999 Y1.2250000000000005
SC_TOOL[0]
G0 X-9.85 Y1.2250000000000005
SC_TOOL[1]
G1 X-9.8 Y1.2250000000000005
SC_TOOL[0]
G0 X-9.6 Y1.2250000000000005
SC_TOOL[1]
G1 X-9.45 Y1.2250000000000005
SC_TOOL[0]
G0 X-6.199999999999999 Y1.2250000000000005
SC_TOOL[1]
G1 X-6.15 Y1.2250000000000005
SC_TOOL[0]
G0 X-3.5999999999999996 Y1.2250000000000005
SC_TOOL[1]
G1 X-3.549999999999999 Y1.2250000000000005
SC_TOOL[0]
G0 X-1.75 Y1.2250000000000005
SC_TOOL[1]
G1 X-1.6499999999999986 Y1.2250000000000005
SC_TOOL[0]
G0 X-0.3999999999999986 Y1.2250000000000005
SC_TOOL[1]
G1 X-0.25 Y1.2250000000000005
SC_TOOL[0]
G0 X8.0 Y1.2250000000000005
SC_TOOL[1]
G1 X8.150000000000002 Y1.2250000000000005
SC_TOOL[0]
G0 X9.3 Y1.2250000000000005
SC_TOOL[1]
G1 X9.350000000000001 Y1.2250000000000005
SC_TOOL[0]
G0 X-10.8 Y1.2750000000000004
SC_TOOL[1]
G1 X-10.7 Y1.2750000000000004
SC_TOOL[0]
G0 X-9.85 Y1.2750000000000004
SC_TOOL[1]
G1 X-9.8 Y1.2750000000000004
SC_TOOL[0]
G0 X-9.5 Y1.2750000000000004
SC_TOOL[1]
G1 X-9.45 Y1.2750000000000004
SC_TOOL[0]
G0 X-6.199999999999999 Y1.2750000000000004
SC_TOOL[1]
G1 X-6.15 Y1.2750000000000004
SC_TOOL[0]
G0 X-3.5999999999999996 Y1.2750000000000004
SC_TOOL[1]
G1 X-3.549999999999999 Y1.2750000000000004
SC_TOOL[0]
G0 X-1.799999999999999 Y1.2750000000000004
SC_TOOL[1]
G1 X-1.6499999999999986 Y1.2750000000000004
SC_TOOL[0]
G0 X-0.34999999999999964 Y1.2750000000000004
SC_TOOL[1]
G1 X-0.25 Y1.2750000000000004
SC_TOOL[0]
G0 X8.0 Y1.2750000000000004
SC_TOOL[1]
G1 X8.100000000000001 Y1.2750000000000004
SC_TOOL[0]
G0 X9.3 Y1.2750000000000004
SC_TOOL[1]
G1 X9.350000000000001 Y1.2750000000000004
SC_TOOL[0]
G0 X-10.8 Y1.3250000000000002
SC_TOOL[1]
G1 X-10.75 Y1.3250000000000002
SC_TOOL[0]
G0 X-9.85 Y1.3250000000000002
SC_TOOL[1]
G1 X-9.75 Y1.3250000000000002
SC_TOOL[0]
G0 X-9.5 Y1.3250000000000002
SC_TOOL[1]
G1 X-9.45 Y1.3250000000000002
SC_TOOL[0]
G0 X-6.25 Y1.3250000000000002
SC_TOOL[1]
G1 X-6.15 Y1.3250000000000002
SC_TOOL[0]
G0 X-3.5999999999999996 Y1.3250000000000002
SC_TOOL[1]
G1 X-3.549999999999999 Y1.3250000000000002
SC_TOOL[0]
G0 X-1.8499999999999996 Y1.3250000000000002
SC_TOOL[1]
G1 X-1.6999999999999993 Y1.3250000000000002
SC_TOOL[0]
G0 X-0.29999999999999893 Y1.3250000000000002
SC_TOOL[1]
G1 X-0.25 Y1.3250000000000002
SC_TOOL[0]
G0 X8.0 Y1.3250000000000002
SC_TOOL[1]
G1 X8.05 Y1.3250000000000002
SC_TOOL[0]
G0 X9.3 Y1.3250000000000002
SC_TOOL[1]
G1 X9.400000000000002 Y1.3250000000000002
SC_TOOL[0]
G0 X-10.85 Y1.375
SC_TOOL[1]
G1 X-10.75 Y1.375
SC_TOOL[0]
G0 X-9.8 Y1.375
SC_TOOL[1]
G1 X-9.75 Y1.375
SC_TOOL[0]
G0 X-9.5 Y1.375
SC_TOOL[1]
G1 X-9.399999999999999 Y1.375
SC_TOOL[0]
G0 X-6.299999999999999 Y1.375
SC_TOOL[1]
G1 X-6.199999999999999 Y1.375
SC_TOOL[0]
G0 X-3.5999999999999996 Y1.375
SC_TOOL[1]
G1 X-3.549999999999999 Y1.375
SC_TOOL[0]
G0 X-1.8999999999999986 Y1.375
SC_TOOL[1]
G1 X-1.75 Y1.375
SC_TOOL[0]
G0 X-0.29999999999999893 Y1.375
SC_TOOL[1]
G1 X-0.25 Y1.375
SC_TOOL[0]
G0 X7.950000000000003 Y1.375
SC_TOOL[1]
G1 X8.05 Y1.375
SC_TOOL[0]
G0 X9.350000000000001 Y1.375
SC_TOOL[1]
G1 X9.450000000000003 Y1.375
SC_TOOL[0]
G0 X-10.899999999999999 Y1.4250000000000007
SC_TOOL[1]
G1 X-10.75 Y1.4250000000000007
SC_TOOL[0]
G0 X-9.8 Y1.4250000000000007
SC_TOOL[1]
G1 X-9.7 Y1.4250000000000007
SC_TOOL[0]
G0 X-9.5 Y1.4250000000000007
SC_TOOL[1]
G1 X-9.35 Y1.4250000000000007
SC_TOOL[0]
G0 X-6.299999999999999 Y1.4250000000000007
SC_TOOL[1]
G1 X-6.25 Y1.4250000000000007
SC_TOOL[0]
G0 X-3.5999999999999996 Y1.4250000000000007
SC_TOOL[1]
G1 X-3.549999999999999 Y1.4250000000000007
SC_TOOL[0]
G0 X-1.9499999999999993 Y1.4250000000000007
SC_TOOL[1]
G1 X-1.799999999999999 Y1.4250000000000007
SC_TOOL[0]
G0 X-0.29999999999999893 Y1.4250000000000007
SC_TOOL[1]
G1 X-0.25 Y1.4250000000000007
SC_TOOL[0]
G0 X7.900000000000002 Y1.4250000000000007
SC_TOOL[1]
G1 X8.05 Y1.4250000000000007
SC_TOOL[0]
G0 X9.400000000000002 Y1.4250000000000007
SC_TOOL[1]
G1 X9.5 Y1.4250000000000007
SC_TOOL[0]
G0 X-10.95 Y1.4750000000000005
SC_TOOL[1]
G1 X-10.85 Y1.4750000000000005
SC_TOOL[0]
G0 X-9.75 Y1.4750000000000005
SC_TOOL[1]
G1 X-9.649999999999999 Y1.4750000000000005
SC_TOOL[0]
G0 X-9.399999999999999 Y1.4750000000000005
SC_TOOL[1]
G1 X-9.3 Y1.4750000000000005
SC_TOOL[0]
G0 X-6.299999999999999 Y1.4750000000000005
SC_TOOL[1]
G1 X-6.25 Y1.4750000000000005
SC_TOOL[0]
G0 X-3.5999999999999996 Y1.4750000000000005
SC_TOOL[1]
G1 X-3.549999999999999 Y1.4750000000000005
SC_TOOL[0]
G0 X-1.9499999999999993 Y1.4750000000000005
SC_TOOL[1]
G1 X-1.8499999999999996 Y1.4750000000000005
SC_TOOL[0]
G0 X-0.29999999999999893 Y1.4750000000000005
SC_TOOL[1]
G1 X-0.25 Y1.4750000000000005
SC_TOOL[0]
G0 X7.900000000000002 Y1.4750000000000005
SC_TOOL[1]
G1 X8.0 Y1.4750000000000005
SC_TOOL[0]
G0 X9.450000000000003 Y1.4750000000000005
SC_TOOL[1]
G1 X9.55 Y1.4750000000000005
SC_TOOL[0]
G0 X-11.0 Y1.5250000000000004
SC_TOOL[1]
G1 X-10.899999999999999 Y1.5250000000000004
SC_TOOL[0]
G0 X-9.7 Y1.5250000000000004
SC_TOOL[1]
G1 X-9.6 Y1.5250000000000004
SC_TOOL[0]
G0 X-9.35 Y1.5250000000000004
SC_TOOL[1]
G1 X-9.25 Y1.5250000000000004
SC_TOOL[0]
G0 X-6.299999999999999 Y1.5250000000000004
SC_TOOL[1]
G1 X-6.25 Y1.5250000000000004
SC_TOOL[0]
G0 X-3.5999999999999996 Y1.5250000000000004
SC_TOOL[1]
G1 X-3.549999999999999 Y1.5250000000000004
SC_TOOL[0]
G0 X-1.9499999999999993 Y1.5250000000000004
SC_TOOL[1]
G1 X-1.8999999999999986 Y1.5250000000000004
SC_TOOL[0]
G0 X-0.29999999999999893 Y1.5250000000000004
SC_TOOL[1]
G1 X-0.25 Y1.5250000000000004
SC_TOOL[0]
G0 X7.900000000000002 Y1.5250000000000004
SC_TOOL[1]
G1 X8.0 Y1.5250000000000004
SC_TOOL[0]
G0 X9.5 Y1.5250000000000004
SC_TOOL[1]
G1 X9.600000000000001 Y1.5250000000000004
SC_TOOL[0]
G0 X-11.05 Y1.5750000000000002
SC_TOOL[1]
G1 X-10.899999999999999 Y1.5750000000000002
SC_TOOL[0]
G0 X-9.7 Y1.5750000000000002
SC_TOOL[1]
G1 X-9.6 Y1.5750000000000002
SC_TOOL[0]
G0 X-9.35 Y1.5750000000000002
SC_TOOL[1]
G1 X-9.25 Y1.5750000000000002
SC_TOOL[0]
G0 X-6.299999999999999 Y1.5750000000000002
SC_TOOL[1]
G1 X-6.25 Y1.5750000000000002
SC_TOOL[0]
G0 X-3.5999999999999996 Y1.5750000000000002
SC_TOOL[1]
G1 X-3.549999999999999 Y1.5750000000000002
SC_TOOL[0]
G0 X-1.9499999999999993 Y1.5750000000000002
SC_TOOL[1]
G1 X-1.8999999999999986 Y1.5750000000000002
SC_TOOL[0]
G0 X-0.29999999999999893 Y1.5750000000000002
SC_TOOL[1]
G1 X-0.25 Y1.5750000000000002
SC_TOOL[0]
G0 X7.900000000000002 Y1.5750000000000002
SC_TOOL[1]
G1 X8.0 Y1.5750000000000002
SC_TOOL[0]
G0 X9.55 Y1.5750000000000002
SC_TOOL[1]
G1 X9.650000000000002 Y1.5750000000000002
SC_TOOL[0]
G0 X-11.1 Y1.625
SC_TOOL[1]
G1 X-11.0 Y1.625
SC_TOOL[0]
G0 X-9.7 Y1.625
SC_TOOL[1]
G1 X-9.6 Y1.625
SC_TOOL[0]
G0 X-9.35 Y1.625
SC_TOOL[1]
G1 X-9.25 Y1.625
SC_TOOL[0]
G0 X-6.299999999999999 Y1.625
SC_TOOL[1]
G1 X-6.25 Y1.625
SC_TOOL[0]
G0 X-3.5999999999999996 Y1.625
SC_TOOL[1]
G1 X-3.549999999999999 Y1.625
SC_TOOL[0]
G0 X-1.9499999999999993 Y1.625
SC_TOOL[1]
G1 X-1.8999999999999986 Y1.625
SC_TOOL[0]
G0 X-0.29999999999999893 Y1.625
SC_TOOL[1]
G1 X-0.25 Y1.625
SC_TOOL[0]
G0 X7.850000000000001 Y1.625
SC_TOOL[1]
G1 X7.950000000000003 Y1.625
SC_TOOL[0]
G0 X9.600000000000001 Y1.625
SC_TOOL[1]
G1 X9.700000000000003 Y1.625
SC_TOOL[0]
G0 X-11.149999999999999 Y1.6750000000000007
SC_TOOL[1]
G1 X-11.0 Y1.6750000000000007
SC_TOOL[0]
G0 X-9.7 Y1.6750000000000007
SC_TOOL[1]
G1 X-9.6 Y1.6750000000000007
SC_TOOL[0]
G0 X-9.35 Y1.6750000000000007
SC_TOOL[1]
G1 X-9.25 Y1.6750000000000007
SC_TOOL[0]
G0 X-6.4 Y1.6750000000000007
SC_TOOL[1]
G1 X-6.25 Y1.6750000000000007
SC_TOOL[0]
G0 X-3.5999999999999996 Y1.6750000000000007
SC_TOOL[1]
G1 X-3.549999999999999 Y1.6750000000000007
SC_TOOL[0]
G0 X-1.9499999999999993 Y1.6750000000000007
SC_TOOL[1]
G1 X-1.8999999999999986 Y1.6750000000000007
SC_TOOL[0]
G0 X-0.29999999999999893 Y1.6750000000000007
SC_TOOL[1]
G1 X-0.1999999999999993 Y1.6750000000000007
SC_TOOL[0]
G0 X7.850000000000001 Y1.6750000000000007
SC_TOOL[1]
G1 X7.900000000000002 Y1.6750000000000007
SC_TOOL[0]
G0 X9.650000000000002 Y1.6750000000000007
SC_TOOL[1]
G1 X9.75 Y1.6750000000000007
SC_TOOL[0]
G0 X-11.2 Y1.7250000000000005
SC_TOOL[1]
G1 X-11.1 Y1.7250000000000005
SC_TOOL[0]
G0 X-9.7 Y1.7250000000000005
SC_TOOL[1]
G1 X-9.6 Y1.7250000000000005
SC_TOOL[0]
G0 X-9.3 Y1.7250000000000005
SC_TOOL[1]
G1 X-9.2 Y1.7250000000000005
SC_TOOL[0]
G0 X-6.4 Y1.7250000000000005
SC_TOOL[1]
G1 X-6.299999999999999 Y1.7250000000000005
SC_TOOL[0]
G0 X-3.5999999999999996 Y1.7250000000000005
SC_TOOL[1]
G1 X-3.549999999999999 Y1.7250000000000005
SC_TOOL[0]
G0 X-1.9499999999999993 Y1.7250000000000005
SC_TOOL[1]
G1 X-1.8999999999999986 Y1.7250000000000005
SC_TOOL[0]
G0 X-0.29999999999999893 Y1.7250000000000005
SC_TOOL[1]
G1 X-0.14999999999999858 Y1.7250000000000005
SC_TOOL[0]
G0 X3.25 Y1.7250000000000005
SC_TOOL[1]
G1 X3.8000000000000007 Y1.7250000000000005
SC_TOOL[0]
G0 X7.850000000000001 Y1.7250000000000005
SC_TOOL[1]
G1 X7.900000000000002 Y1.7250000000000005
SC_TOOL[0]
G0 X9.700000000000003 Y1.7250000000000005
SC_TOOL[1]
G1 X9.850000000000001 Y1.7250000000000005
SC_TOOL[0]
G0 X-11.25 Y1.7750000000000004
SC_TOOL[1]
G1 X-11.1 Y1.7750000000000004
SC_TOOL[0]
G0 X-9.7 Y1.7750000000000004
SC_TOOL[1]
G1 X-9.55 Y1.7750000000000004
SC_TOOL[0]
G0 X-9.25 Y1.7750000000000004
SC_TOOL[1]
G1 X-9.2 Y1.7750000000000004
SC_TOOL[0]
G0 X-6.4 Y1.7750000000000004
SC_TOOL[1]
G1 X-6.299999999999999 Y1.7750000000000004
SC_TOOL[0]
G0 X-3.5999999999999996 Y1.7750000000000004
SC_TOOL[1]
G1 X-3.549999999999999 Y1.7750000000000004
SC_TOOL[0]
G0 X-1.9499999999999993 Y1.7750000000000004
SC_TOOL[1]
G1 X-1.8999999999999986 Y1.7750000000000004
SC_TOOL[0]
G0 X-0.25 Y1.7750000000000004
SC_TOOL[1]
G1 X-0.09999999999999964 Y1.7750000000000004
SC_TOOL[0]
G0 X3.1999999999999993 Y1.7750000000000004
SC_TOOL[1]
G1 X3.8000000000000007 Y1.7750000000000004
SC_TOOL[0]
G0 X7.850000000000001 Y1.7750000000000004
SC_TOOL[1]
G1 X7.900000000000002 Y1.7750000000000004
SC_TOOL[0]
G0 X9.75 Y1.7750000000000004
SC_TOOL[1]
G1 X9.900000000000002 Y1.7750000000000004
SC_TOOL[0]
G0 X-11.25 Y1.8250000000000002
SC_TOOL[1]
G1 X-11.2 Y1.8250000000000002
SC_TOOL[0]
G0 X-9.649999999999999 Y1.8250000000000002
SC_TOOL[1]
G1 X-9.55 Y1.8250000000000002
SC_TOOL[0]
G0 X-9.25 Y1.8250000000000002
SC_TOOL[1]
G1 X-9.149999999999999 Y1.8250000000000002
SC_TOOL[0]
G0 X-6.449999999999999 Y1.8250000000000002
SC_TOOL[1]
G1 X-6.299999999999999 Y1.8250000000000002
SC_TOOL[0]
G0 X-3.5999999999999996 Y1.8250000000000002
SC_TOOL[1]
G1 X-3.549999999999999 Y1.8250000000000002
SC_TOOL[0]
G0 X-2.049999999999999 Y1.8250000000000002
SC_TOOL[1]
G1 X-1.8999999999999986 Y1.8250000000000002
SC_TOOL[0]
G0 X-0.1999999999999993 Y1.8250000000000002
SC_TOOL[1]
G1 X-0.09999999999999964 Y1.8250000000000002
SC_TOOL[0]
G0 X3.150000000000002 Y1.8250000000000002
SC_TOOL[1]
G1 X3.25 Y1.8250000000000002
SC_TOOL[0]
G0 X3.75 Y1.8250000000000002
SC_TOOL[1]
G1 X3.8000000000000007 Y1.8250000000000002
SC_TOOL[0]
G0 X7.850000000000001 Y1.8250000000000002
SC_TOOL[1]
G1 X7.900000000000002 Y1.8250000000000002
SC_TOOL[0]
G0 X9.850000000000001 Y1.8250000000000002
SC_TOOL[1]
G1 X9.950000000000003 Y1.8250000000000002
SC_TOOL[0]
G0 X-11.25 Y1.875
SC_TOOL[1]
G1 X-11.2 Y1.875
SC_TOOL[0]
G0 X-9.6 Y1.875
SC_TOOL[1]
G1 X-9.55 Y1.875
SC_TOOL[0]
G0 X-9.25 Y1.875
SC_TOOL[1]
G1 X-9.149999999999999 Y1.875
SC_TOOL[0]
G0 X-6.5 Y1.875
SC_TOOL[1]
G1 X-6.4 Y1.875
SC_TOOL[0]
G0 X-3.5999999999999996 Y1.875
SC_TOOL[1]
G1 X-3.549999999999999 Y1.875
SC_TOOL[0]
G0 X-2.049999999999999 Y1.875
SC_TOOL[1]
G1 X-1.9499999999999993 Y1.875
SC_TOOL[0]
G0 X-0.14999999999999858 Y1.875
SC_TOOL[1]
G1 X-0.049999999999998934 Y1.875
SC_TOOL[0]
G0 X3.1000000000000014 Y1.875
SC_TOOL[1]
G1 X3.1999999999999993 Y1.875
SC_TOOL[0]
G0 X3.75 Y1.875
SC_TOOL[1]
G1 X3.8000000000000007 Y1.875
SC_TOOL[0]
G0 X7.850000000000001 Y1.875
SC_TOOL[1]
G1 X7.900000000000002 Y1.875
SC_TOOL[0]
G0 X9.900000000000002 Y1.875
SC_TOOL[1]
G1 X10.0 Y1.875
SC_TOOL[0]
G0 X-11.35 Y1.9250000000000007
SC_TOOL[1]
G1 X-11.2 Y1.9250000000000007
SC_TOOL[0]
G0 X-9.6 Y1.9250000000000007
SC_TOOL[1]
G1 X-9.55 Y1.9250000000000007
SC_TOOL[0]
G0 X-9.2 Y1.9250000000000007
SC_TOOL[1]
G1 X-9.1 Y1.9250000000000007
SC_TOOL[0]
G0 X-6.5 Y1.9250000000000007
SC_TOOL[1]
G1 X-6.4 Y1.9250000000000007
SC_TOOL[0]
G0 X-3.5999999999999996 Y1.9250000000000007
SC_TOOL[1]
G1 X-3.549999999999999 Y1.9250000000000007
SC_TOOL[0]
G0 X-2.049999999999999 Y1.9250000000000007
SC_TOOL[1]
G1 X-2.0 Y1.9250000000000007
SC_TOOL[0]
G0 X-0.14999999999999858 Y1.9250000000000007
SC_TOOL[1]
G1 X0.0 Y1.9250000000000007
SC_TOOL[0]
G0 X2.900000000000002 Y1.9250000000000007
SC_TOOL[1]
G1 X3.150000000000002 Y1.9250000000000007
SC_TOOL[0]
G0 X3.75 Y1.9250000000000007
SC_TOOL[1]
G1 X3.8500000000000014 Y1.9250000000000007
SC_TOOL[0]
G0 X7.850000000000001 Y1.9250000000000007
SC_TOOL[1]
G1 X7.900000000000002 Y1.9250000000000007
SC_TOOL[0]
G0 X9.900000000000002 Y1.9250000000000007
SC_TOOL[1]
G1 X10.25 Y1.9250000000000007
SC_TOOL[0]
G0 X14.0 Y1.9250000000000007
SC_TOOL[1]
G1 X15.100000000000001 Y1.9250000000000007
SC_TOOL[0]
G0 X-11.35 Y1.9750000000000005
SC_TOOL[1]
G1 X-11.25 Y1.9750000000000005
SC_TOOL[0]
G0 X-9.6 Y1.9750000000000005
SC_TOOL[1]
G1 X-9.5 Y1.9750000000000005
SC_TOOL[0]
G0 X-9.149999999999999 Y1.9750000000000005
SC_TOOL[1]
G1 X-9.1 Y1.9750000000000005
SC_TOOL[0]
G0 X-6.549999999999999 Y1.9750000000000005
SC_TOOL[1]
G1 X-6.449999999999999 Y1.9750000000000005
SC_TOOL[0]
G0 X-3.5999999999999996 Y1.9750000000000005
SC_TOOL[1]
G1 X-3.549999999999999 Y1.9750000000000005
SC_TOOL[0]
G0 X-2.049999999999999 Y1.9750000000000005
SC_TOOL[1]
G1 X-2.0 Y1.9750000000000005
SC_TOOL[0]
G0 X-0.049999999999998934 Y1.9750000000000005
SC_TOOL[1]
G1 X0.5500000000000007 Y1.9750000000000005
SC_TOOL[0]
G0 X2.75 Y1.9750000000000005
SC_TOOL[1]
G1 X2.9499999999999993 Y1.9750000000000005
SC_TOOL[0]
G0 X3.8000000000000007 Y1.9750000000000005
SC_TOOL[1]
G1 X3.950000000000003 Y1.9750000000000005
SC_TOOL[0]
G0 X7.850000000000001 Y1.9750000000000005
SC_TOOL[1]
G1 X7.900000000000002 Y1.9750000000000005
SC_TOOL[0]
G0 X10.200000000000003 Y1.9750000000000005
SC_TOOL[1]
G1 X10.850000000000001 Y1.9750000000000005
SC_TOOL[0]
G0 X13.700000000000003 Y1.9750000000000005
SC_TOOL[1]
G1 X14.05 Y1.9750000000000005
SC_TOOL[0]
G0 X-11.35 Y2.0250000000000004
SC_TOOL[1]
G1 X-11.25 Y2.0250000000000004
SC_TOOL[0]
G0 X-9.6 Y2.0250000000000004
SC_TOOL[1]
G1 X-9.45 Y2.0250000000000004
SC_TOOL[0]
G0 X-9.149999999999999 Y2.0250000000000004
SC_TOOL[1]
G1 X-9.05 Y2.0250000000000004
SC_TOOL[0]
G0 X-6.549999999999999 Y2.0250000000000004
SC_TOOL[1]
G1 X-6.5 Y2.0250000000000004
SC_TOOL[0]
G0 X-3.5999999999999996 Y2.0250000000000004
SC_TOOL[1]
G1 X-3.549999999999999 Y2.0250000000000004
SC_TOOL[0]
G0 X-2.0999999999999996 Y2.0250000000000004
SC_TOOL[1]
G1 X-2.0 Y2.0250000000000004
SC_TOOL[0]
G0 X-0.049999999999998934 Y2.0250000000000004
SC_TOOL[1]
G1 X0.6500000000000004 Y2.0250000000000004
SC_TOOL[0]
G0 X2.650000000000002 Y2.0250000000000004
SC_TOOL[1]
G1 X2.9499999999999993 Y2.0250000000000004
SC_TOOL[0]
G0 X3.8500000000000014 Y2.0250000000000004
SC_TOOL[1]
G1 X4.0 Y2.0250000000000004
SC_TOOL[0]
G0 X7.850000000000001 Y2.0250000000000004
SC_TOOL[1]
G1 X7.900000000000002 Y2.0250000000000004
SC_TOOL[0]
G0 X10.25 Y2.0250000000000004
SC_TOOL[1]
G1 X10.950000000000003 Y2.0250000000000004
SC_TOOL[0]
G0 X13.650000000000002 Y2.0250000000000004
SC_TOOL[1]
G1 X14.05 Y2.0250000000000004
SC_TOOL[0]
G0 X-11.35 Y2.075
SC_TOOL[1]
G1 X-11.25 Y2.075
SC_TOOL[0]
G0 X-9.5 Y2.075
SC_TOOL[1]
G1 X-9.3 Y2.075
SC_TOOL[0]
G0 X-9.1 Y2.075
SC_TOOL[1]
G1 X-9.05 Y2.075
SC_TOOL[0]
G0 X-6.549999999999999 Y2.075
SC_TOOL[1]
G1 X-6.5 Y2.075
SC_TOOL[0]
G0 X-3.5999999999999996 Y2.075
SC_TOOL[1]
G1 X-3.549999999999999 Y2.075
SC_TOOL[0]
G0 X-2.1499999999999986 Y2.075
SC_TOOL[1]
G1 X-2.049999999999999 Y2.075
SC_TOOL[0]
G0 X0.6000000000000014 Y2.075
SC_TOOL[1]
G1 X1.0 Y2.075
SC_TOOL[0]
G0 X2.4499999999999993 Y2.075
SC_TOOL[1]
G1 X2.75 Y2.075
SC_TOOL[0]
G0 X3.950000000000003 Y2.075
SC_TOOL[1]
G1 X4.050000000000001 Y2.075
SC_TOOL[0]
G0 X7.850000000000001 Y2.075
SC_TOOL[1]
G1 X7.900000000000002 Y2.075
SC_TOOL[0]
G0 X10.850000000000001 Y2.075
SC_TOOL[1]
G1 X13.700000000000003 Y2.075
SC_TOOL[0]
G0 X-11.4 Y2.125
SC_TOOL[1]
G1 X-11.3 Y2.125
SC_TOOL[0]
G0 X-9.45 Y2.125
SC_TOOL[1]
G1 X-9.25 Y2.125
SC_TOOL[0]
G0 X-9.1 Y2.125
SC_TOOL[1]
G1 X-9.0 Y2.125
SC_TOOL[0]
G0 X-6.549999999999999 Y2.125
SC_TOOL[1]
G1 X-6.5 Y2.125
SC_TOOL[0]
G0 X-3.5999999999999996 Y2.125
SC_TOOL[1]
G1 X-3.549999999999999 Y2.125
SC_TOOL[0]
G0 X-2.1999999999999993 Y2.125
SC_TOOL[1]
G1 X-2.0999999999999996 Y2.125
SC_TOOL[0]
G0 X0.6500000000000004 Y2.125
SC_TOOL[1]
G1 X1.0500000000000007 Y2.125
SC_TOOL[0]
G0 X2.400000000000002 Y2.125
SC_TOOL[1]
G1 X2.650000000000002 Y2.125
SC_TOOL[0]
G0 X3.950000000000003 Y2.125
SC_TOOL[1]
G1 X4.100000000000001 Y2.125
SC_TOOL[0]
G0 X7.850000000000001 Y2.125
SC_TOOL[1]
G1 X7.900000000000002 Y2.125
SC_TOOL[0]
G0 X10.900000000000002 Y2.125
SC_TOOL[1]
G1 X13.700000000000003 Y2.125
SC_TOOL[0]
G0 X-11.4 Y2.1750000000000007
SC_TOOL[1]
G1 X-11.35 Y2.1750000000000007
SC_TOOL[0]
G0 X-9.35 Y2.1750000000000007
SC_TOOL[1]
G1 X-8.75 Y2.1750000000000007
SC_TOOL[0]
G0 X-6.65 Y2.1750000000000007
SC_TOOL[1]
G1 X-6.5 Y2.1750000000000007
SC_TOOL[0]
G0 X-3.5999999999999996 Y2.1750000000000007
SC_TOOL[1]
G1 X-3.549999999999999 Y2.1750000000000007
SC_TOOL[0]
G0 X-2.25 Y2.1750000000000007
SC_TOOL[1]
G1 X-2.1499999999999986 Y2.1750000000000007
SC_TOOL[0]
G0 X1.0 Y2.1750000000000007
SC_TOOL[1]
G1 X2.4499999999999993 Y2.1750000000000007
SC_TOOL[0]
G0 X4.0 Y2.1750000000000007
SC_TOOL[1]
G1 X4.100000000000001 Y2.1750000000000007
SC_TOOL[0]
G0 X7.850000000000001 Y2.1750000000000007
SC_TOOL[1]
G1 X7.900000000000002 Y2.1750000000000007
SC_TOOL[0]
G0 X-11.4 Y2.2250000000000005
SC_TOOL[1]
G1 X-11.35 Y2.2250000000000005
SC_TOOL[0]
G0 X-9.0 Y2.2250000000000005
SC_TOOL[1]
G1 X-8.899999999999999 Y2.2250000000000005
SC_TOOL[0]
G0 X-8.85 Y2.2250000000000005
SC_TOOL[1]
G1 X-8.75 Y2.2250000000000005
SC_TOOL[0]
G0 X-6.699999999999999 Y2.2250000000000005
SC_TOOL[1]
G1 X-6.6 Y2.2250000000000005
SC_TOOL[0]
G0 X-3.5999999999999996 Y2.2250000000000005
SC_TOOL[1]
G1 X-3.549999999999999 Y2.2250000000000005
SC_TOOL[0]
G0 X-2.299999999999999 Y2.2250000000000005
SC_TOOL[1]
G1 X-2.1999999999999993 Y2.2250000000000005
SC_TOOL[0]
G0 X4.050000000000001 Y2.2250000000000005
SC_TOOL[1]
G1 X4.150000000000002 Y2.2250000000000005
SC_TOOL[0]
G0 X7.850000000000001 Y2.2250000000000005
SC_TOOL[1]
G1 X7.900000000000002 Y2.2250000000000005
SC_TOOL[0]
G0 X-11.4 Y2.2750000000000004
SC_TOOL[1]
G1 X-11.35 Y2.2750000000000004
SC_TOOL[0]
G0 X-9.0 Y2.2750000000000004
SC_TOOL[1]
G1 X-8.95 Y2.2750000000000004
SC_TOOL[0]
G0 X-8.8 Y2.2750000000000004
SC_TOOL[1]
G1 X-8.649999999999999 Y2.2750000000000004
SC_TOOL[0]
G0 X-6.75 Y2.2750000000000004
SC_TOOL[1]
G1 X-6.65 Y2.2750000000000004
SC_TOOL[0]
G0 X-3.5999999999999996 Y2.2750000000000004
SC_TOOL[1]
G1 X-3.549999999999999 Y2.2750000000000004
SC_TOOL[0]
G0 X-2.299999999999999 Y2.2750000000000004
SC_TOOL[1]
G1 X-2.25 Y2.2750000000000004
SC_TOOL[0]
G0 X4.100000000000001 Y2.2750000000000004
SC_TOOL[1]
G1 X4.150000000000002 Y2.2750000000000004
SC_TOOL[0]
G0 X7.850000000000001 Y2.2750000000000004
SC_TOOL[1]
G1 X7.900000000000002 Y2.2750000000000004
SC_TOOL[0]
G0 X-11.4 Y2.325
SC_TOOL[1]
G1 X-11.35 Y2.325
SC_TOOL[0]
G0 X-9.0 Y2.325
SC_TOOL[1]
G1 X-8.899999999999999 Y2.325
SC_TOOL[0]
G0 X-8.75 Y2.325
SC_TOOL[1]
G1 X-8.649999999999999 Y2.325
SC_TOOL[0]
G0 X-6.799999999999999 Y2.325
SC_TOOL[1]
G1 X-6.65 Y2.325
SC_TOOL[0]
G0 X-3.5999999999999996 Y2.325
SC_TOOL[1]
G1 X-3.549999999999999 Y2.325
SC_TOOL[0]
G0 X-2.299999999999999 Y2.325
SC_TOOL[1]
G1 X-2.25 Y2.325
SC_TOOL[0]
G0 X4.100000000000001 Y2.325
SC_TOOL[1]
G1 X4.200000000000003 Y2.325
SC_TOOL[0]
G0 X7.850000000000001 Y2.325
SC_TOOL[1]
G1 X7.900000000000002 Y2.325
SC_TOOL[0]
G0 X-11.4 Y2.375
SC_TOOL[1]
G1 X-11.35 Y2.375
SC_TOOL[0]
G0 X-8.95 Y2.375
SC_TOOL[1]
G1 X-8.85 Y2.375
SC_TOOL[0]
G0 X-8.75 Y2.375
SC_TOOL[1]
G1 X-8.649999999999999 Y2.375
SC_TOOL[0]
G0 X-6.799999999999999 Y2.375
SC_TOOL[1]
G1 X-6.699999999999999 Y2.375
SC_TOOL[0]
G0 X-3.5999999999999996 Y2.375
SC_TOOL[1]
G1 X-3.549999999999999 Y2.375
SC_TOOL[0]
G0 X-2.299999999999999 Y2.375
SC_TOOL[1]
G1 X-2.25 Y2.375
SC_TOOL[0]
G0 X4.100000000000001 Y2.375
SC_TOOL[1]
G1 X4.300000000000001 Y2.375
SC_TOOL[0]
G0 X7.850000000000001 Y2.375
SC_TOOL[1]
G1 X7.900000000000002 Y2.375
SC_TOOL[0]
G0 X-11.4 Y2.4250000000000007
SC_TOOL[1]
G1 X-11.35 Y2.4250000000000007
SC_TOOL[0]
G0 X-8.899999999999999 Y2.4250000000000007
SC_TOOL[1]
G1 X-8.85 Y2.4250000000000007
SC_TOOL[0]
G0 X-8.75 Y2.4250000000000007
SC_TOOL[1]
G1 X-8.649999999999999 Y2.4250000000000007
SC_TOOL[0]
G0 X-6.9 Y2.4250000000000007
SC_TOOL[1]
G1 X-6.75 Y2.4250000000000007
SC_TOOL[0]
G0 X-3.5999999999999996 Y2.4250000000000007
SC_TOOL[1]
G1 X-3.549999999999999 Y2.4250000000000007
SC_TOOL[0]
G0 X-2.299999999999999 Y2.4250000000000007
SC_TOOL[1]
G1 X-2.25 Y2.4250000000000007
SC_TOOL[0]
G0 X4.25 Y2.4250000000000007
SC_TOOL[1]
G1 X4.350000000000001 Y2.4250000000000007
SC_TOOL[0]
G0 X7.850000000000001 Y2.4250000000000007
SC_TOOL[1]
G1 X7.900000000000002 Y2.4250000000000007
SC_TOOL[0]
G0 X-11.4 Y2.4750000000000005
SC_TOOL[1]
G1 X-11.35 Y2.4750000000000005
SC_TOOL[0]
G0 X-8.899999999999999 Y2.4750000000000005
SC_TOOL[1]
G1 X-8.85 Y2.4750000000000005
SC_TOOL[0]
G0 X-8.75 Y2.4750000000000005
SC_TOOL[1]
G1 X-8.649999999999999 Y2.4750000000000005
SC_TOOL[0]
G0 X-6.9 Y2.4750000000000005
SC_TOOL[1]
G1 X-6.799999999999999 Y2.4750000000000005
SC_TOOL[0]
G0 X-3.5999999999999996 Y2.4750000000000005
SC_TOOL[1]
G1 X-3.549999999999999 Y2.4750000000000005
SC_TOOL[0]
G0 X-2.299999999999999 Y2.4750000000000005
SC_TOOL[1]
G1 X-2.25 Y2.4750000000000005
SC_TOOL[0]
G0 X4.25 Y2.4750000000000005
SC_TOOL[1]
G1 X4.350000000000001 Y2.4750000000000005
SC_TOOL[0]
G0 X7.850000000000001 Y2.4750000000000005
SC_TOOL[1]
G1 X7.900000000000002 Y2.4750000000000005
SC_TOOL[0]
G0 X-11.4 Y2.5250000000000004
SC_TOOL[1]
G1 X-11.35 Y2.5250000000000004
SC_TOOL[0]
G0 X-8.899999999999999 Y2.5250000000000004
SC_TOOL[1]
G1 X-8.649999999999999 Y2.5250000000000004
SC_TOOL[0]
G0 X-7.0 Y2.5250000000000004
SC_TOOL[1]
G1 X-6.85 Y2.5250000000000004
SC_TOOL[0]
G0 X-3.5999999999999996 Y2.5250000000000004
SC_TOOL[1]
G1 X-3.549999999999999 Y2.5250000000000004
SC_TOOL[0]
G0 X-2.3499999999999996 Y2.5250000000000004
SC_TOOL[1]
G1 X-2.25 Y2.5250000000000004
SC_TOOL[0]
G0 X4.25 Y2.5250000000000004
SC_TOOL[1]
G1 X4.350000000000001 Y2.5250000000000004
SC_TOOL[0]
G0 X7.850000000000001 Y2.5250000000000004
SC_TOOL[1]
G1 X7.900000000000002 Y2.5250000000000004
SC_TOOL[0]
G0 X-11.4 Y2.575
SC_TOOL[1]
G1 X-11.35 Y2.575
SC_TOOL[0]
G0 X-8.85 Y2.575
SC_TOOL[1]
G1 X-8.649999999999999 Y2.575
SC_TOOL[0]
G0 X-7.0 Y2.575
SC_TOOL[1]
G1 X-6.9 Y2.575
SC_TOOL[0]
G0 X-3.5999999999999996 Y2.575
SC_TOOL[1]
G1 X-3.549999999999999 Y2.575
SC_TOOL[0]
G0 X-2.3999999999999986 Y2.575
SC_TOOL[1]
G1 X-2.299999999999999 Y2.575
SC_TOOL[0]
G0 X4.300000000000001 Y2.575
SC_TOOL[1]
G1 X4.400000000000002 Y2.575
SC_TOOL[0]
G0 X7.850000000000001 Y2.575
SC_TOOL[1]
G1 X7.900000000000002 Y2.575
SC_TOOL[0]
G0 X-11.4 Y2.625
SC_TOOL[1]
G1 X-11.35 Y2.625
SC_TOOL[0]
G0 X-8.8 Y2.625
SC_TOOL[1]
G1 X-8.649999999999999 Y2.625
SC_TOOL[0]
G0 X-7.0 Y2.625
SC_TOOL[1]
G1 X-6.949999999999999 Y2.625
SC_TOOL[0]
G0 X-3.5999999999999996 Y2.625
SC_TOOL[1]
G1 X-3.549999999999999 Y2.625
SC_TOOL[0]
G0 X-2.3999999999999986 Y2.625
SC_TOOL[1]
G1 X-2.299999999999999 Y2.625
SC_TOOL[0]
G0 X4.350000000000001 Y2.625
SC_TOOL[1]
G1 X4.450000000000003 Y2.625
SC_TOOL[0]
G0 X6.300000000000001 Y2.625
SC_TOOL[1]
G1 X7.450000000000003 Y2.625
SC_TOOL[0]
G0 X7.850000000000001 Y2.625
SC_TOOL[1]
G1 X7.900000000000002 Y2.625
SC_TOOL[0]
G0 X-11.4 Y2.6750000000000007
SC_TOOL[1]
G1 X-11.35 Y2.6750000000000007
SC_TOOL[0]
G0 X-8.75 Y2.6750000000000007
SC_TOOL[1]
G1 X-8.6 Y2.6750000000000007
SC_TOOL[0]
G0 X-7.049999999999999 Y2.6750000000000007
SC_TOOL[1]
G1 X-6.949999999999999 Y2.6750000000000007
SC_TOOL[0]
G0 X-3.5999999999999996 Y2.6750000000000007
SC_TOOL[1]
G1 X-3.549999999999999 Y2.6750000000000007
SC_TOOL[0]
G0 X-2.3999999999999986 Y2.6750000000000007
SC_TOOL[1]
G1 X-2.3499999999999996 Y2.6750000000000007
SC_TOOL[0]
G0 X4.350000000000001 Y2.6750000000000007
SC_TOOL[1]
G1 X4.450000000000003 Y2.6750000000000007
SC_TOOL[0]
G0 X6.050000000000001 Y2.6750000000000007
SC_TOOL[1]
G1 X6.400000000000002 Y2.6750000000000007
SC_TOOL[0]
G0 X7.400000000000002 Y2.6750000000000007
SC_TOOL[1]
G1 X7.5 Y2.6750000000000007
SC_TOOL[0]
G0 X7.850000000000001 Y2.6750000000000007
SC_TOOL[1]
G1 X7.900000000000002 Y2.6750000000000007
SC_TOOL[0]
G0 X-11.4 Y2.7249999999999996
SC_TOOL[1]
G1 X-11.35 Y2.7249999999999996
SC_TOOL[0]
G0 X-8.75 Y2.7249999999999996
SC_TOOL[1]
G1 X-8.6 Y2.7249999999999996
SC_TOOL[0]
G0 X-7.1 Y2.7249999999999996
SC_TOOL[1]
G1 X-6.949999999999999 Y2.7249999999999996
SC_TOOL[0]
G0 X-3.5999999999999996 Y2.7249999999999996
SC_TOOL[1]
G1 X-3.549999999999999 Y2.7249999999999996
SC_TOOL[0]
G0 X-2.3999999999999986 Y2.7249999999999996
SC_TOOL[1]
G1 X-2.3499999999999996 Y2.7249999999999996
SC_TOOL[0]
G0 X4.350000000000001 Y2.7249999999999996
SC_TOOL[1]
G1 X4.450000000000003 Y2.7249999999999996
SC_TOOL[0]
G0 X6.0 Y2.7249999999999996
SC_TOOL[1]
G1 X6.350000000000001 Y2.7249999999999996
SC_TOOL[0]
G0 X7.400000000000002 Y2.7249999999999996
SC_TOOL[1]
G1 X7.550000000000001 Y2.7249999999999996
SC_TOOL[0]
G0 X7.850000000000001 Y2.7249999999999996
SC_TOOL[1]
G1 X7.950000000000003 Y2.7249999999999996
SC_TOOL[0]
G0 X-11.4 Y2.7750000000000004
SC_TOOL[1]
G1 X-11.3 Y2.7750000000000004
SC_TOOL[0]
G0 X-8.75 Y2.7750000000000004
SC_TOOL[1]
G1 X-8.5 Y2.7750000000000004
SC_TOOL[0]
G0 X-7.25 Y2.7750000000000004
SC_TOOL[1]
G1 X-7.0 Y2.7750000000000004
SC_TOOL[0]
G0 X-3.5999999999999996 Y2.7750000000000004
SC_TOOL[1]
G1 X-3.549999999999999 Y2.7750000000000004
SC_TOOL[0]
G0 X-2.4499999999999993 Y2.7750000000000004
SC_TOOL[1]
G1 X-2.3499999999999996 Y2.7750000000000004
SC_TOOL[0]
G0 X4.350000000000001 Y2.7750000000000004
SC_TOOL[1]
G1 X4.450000000000003 Y2.7750000000000004
SC_TOOL[0]
G0 X5.900000000000002 Y2.7750000000000004
SC_TOOL[1]
G1 X6.050000000000001 Y2.7750000000000004
SC_TOOL[0]
G0 X7.5 Y2.7750000000000004
SC_TOOL[1]
G1 X7.950000000000003 Y2.7750000000000004
SC_TOOL[0]
G0 X-11.35 Y2.825000000000001
SC_TOOL[1]
G1 X-11.25 Y2.825000000000001
SC_TOOL[0]
G0 X-8.75 Y2.825000000000001
SC_TOOL[1]
G1 X-8.649999999999999 Y2.825000000000001
SC_TOOL[0]
G0 X-8.6 Y2.825000000000001
SC_TOOL[1]
G1 X-8.5 Y2.825000000000001
SC_TOOL[0]
G0 X-7.25 Y2.825000000000001
SC_TOOL[1]
G1 X-7.15 Y2.825000000000001
SC_TOOL[0]
G0 X-3.5999999999999996 Y2.825000000000001
SC_TOOL[1]
G1 X-3.549999999999999 Y2.825000000000001
SC_TOOL[0]
G0 X-2.4499999999999993 Y2.825000000000001
SC_TOOL[1]
G1 X-2.3999999999999986 Y2.825000000000001
SC_TOOL[0]
G0 X4.350000000000001 Y2.825000000000001
SC_TOOL[1]
G1 X4.450000000000003 Y2.825000000000001
SC_TOOL[0]
G0 X5.850000000000001 Y2.825000000000001
SC_TOOL[1]
G1 X6.0 Y2.825000000000001
SC_TOOL[0]
G0 X7.800000000000001 Y2.825000000000001
SC_TOOL[1]
G1 X8.0 Y2.825000000000001
SC_TOOL[0]
G0 X-11.35 Y2.875
SC_TOOL[1]
G1 X-11.2 Y2.875
SC_TOOL[0]
G0 X-8.75 Y2.875
SC_TOOL[1]
G1 X-8.649999999999999 Y2.875
SC_TOOL[0]
G0 X-8.55 Y2.875
SC_TOOL[1]
G1 X-8.149999999999999 Y2.875
SC_TOOL[0]
G0 X-7.35 Y2.875
SC_TOOL[1]
G1 X-7.199999999999999 Y2.875
SC_TOOL[0]
G0 X-3.5999999999999996 Y2.875
SC_TOOL[1]
G1 X-3.549999999999999 Y2.875
SC_TOOL[0]
G0 X-2.5 Y2.875
SC_TOOL[1]
G1 X-2.3999999999999986 Y2.875
SC_TOOL[0]
G0 X4.350000000000001 Y2.875
SC_TOOL[1]
G1 X4.450000000000003 Y2.875
SC_TOOL[0]
G0 X5.75 Y2.875
SC_TOOL[1]
G1 X5.900000000000002 Y2.875
SC_TOOL[0]
G0 X7.850000000000001 Y2.875
SC_TOOL[1]
G1 X8.150000000000002 Y2.875
SC_TOOL[0]
G0 X-11.25 Y2.9250000000000007
SC_TOOL[1]
G1 X-11.2 Y2.9250000000000007
SC_TOOL[0]
G0 X-8.75 Y2.9250000000000007
SC_TOOL[1]
G1 X-8.649999999999999 Y2.9250000000000007
SC_TOOL[0]
G0 X-8.2 Y2.9250000000000007
SC_TOOL[1]
G1 X-8.1 Y2.9250000000000007
SC_TOOL[0]
G0 X-7.35 Y2.9250000000000007
SC_TOOL[1]
G1 X-7.25 Y2.9250000000000007
SC_TOOL[0]
G0 X-3.5999999999999996 Y2.9250000000000007
SC_TOOL[1]
G1 X-3.5 Y2.9250000000000007
SC_TOOL[0]
G0 X-2.549999999999999 Y2.9250000000000007
SC_TOOL[1]
G1 X-2.4499999999999993 Y2.9250000000000007
SC_TOOL[0]
G0 X4.350000000000001 Y2.9250000000000007
SC_TOOL[1]
G1 X4.450000000000003 Y2.9250000000000007
SC_TOOL[0]
G0 X5.650000000000002 Y2.9250000000000007
SC_TOOL[1]
G1 X5.800000000000001 Y2.9250000000000007
SC_TOOL[0]
G0 X-11.25 Y2.9749999999999996
SC_TOOL[1]
G1 X-11.2 Y2.9749999999999996
SC_TOOL[0]
G0 X-8.75 Y2.9749999999999996
SC_TOOL[1]
G1 X-8.649999999999999 Y2.9749999999999996
SC_TOOL[0]
G0 X-8.2 Y2.9749999999999996
SC_TOOL[1]
G1 X-7.3 Y2.9749999999999996
SC_TOOL[0]
G0 X-3.5999999999999996 Y2.9749999999999996
SC_TOOL[1]
G1 X-3.3999999999999986 Y2.9749999999999996
SC_TOOL[0]
G0 X-2.5999999999999996 Y2.9749999999999996
SC_TOOL[1]
G1 X-2.5 Y2.9749999999999996
SC_TOOL[0]
G0 X4.350000000000001 Y2.9749999999999996
SC_TOOL[1]
G1 X4.450000000000003 Y2.9749999999999996
SC_TOOL[0]
G0 X5.5 Y2.9749999999999996
SC_TOOL[1]
G1 X5.75 Y2.9749999999999996
SC_TOOL[0]
G0 X-11.25 Y3.0250000000000004
SC_TOOL[1]
G1 X-11.1 Y3.0250000000000004
SC_TOOL[0]
G0 X-8.8 Y3.0250000000000004
SC_TOOL[1]
G1 X-8.649999999999999 Y3.0250000000000004
SC_TOOL[0]
G0 X-3.4499999999999993 Y3.0250000000000004
SC_TOOL[1]
G1 X-3.299999999999999 Y3.0250000000000004
SC_TOOL[0]
G0 X-2.6499999999999986 Y3.0250000000000004
SC_TOOL[1]
G1 X-2.549999999999999 Y3.0250000000000004
SC_TOOL[0]
G0 X4.350000000000001 Y3.0250000000000004
SC_TOOL[1]
G1 X4.450000000000003 Y3.0250000000000004
SC_TOOL[0]
G0 X5.400000000000002 Y3.0250000000000004
SC_TOOL[1]
G1 X5.550000000000001 Y3.0250000000000004
SC_TOOL[0]
G0 X-11.2 Y3.075000000000001
SC_TOOL[1]
G1 X-11.1 Y3.075000000000001
SC_TOOL[0]
G0 X-8.8 Y3.075000000000001
SC_TOOL[1]
G1 X-8.7 Y3.075000000000001
SC_TOOL[0]
G0 X-3.3999999999999986 Y3.075000000000001
SC_TOOL[1]
G1 X-3.299999999999999 Y3.075000000000001
SC_TOOL[0]
G0 X-2.6499999999999986 Y3.075000000000001
SC_TOOL[1]
G1 X-2.5999999999999996 Y3.075000000000001
SC_TOOL[0]
G0 X4.350000000000001 Y3.075000000000001
SC_TOOL[1]
G1 X4.450000000000003 Y3.075000000000001
SC_TOOL[0]
G0 X5.350000000000001 Y3.075000000000001
SC_TOOL[1]
G1 X5.550000000000001 Y3.075000000000001
SC_TOOL[0]
G0 X-11.149999999999999 Y3.125
SC_TOOL[1]
G1 X-11.1 Y3.125
SC_TOOL[0]
G0 X-8.8 Y3.125
SC_TOOL[1]
G1 X-8.75 Y3.125
SC_TOOL[0]
G0 X-3.3499999999999996 Y3.125
SC_TOOL[1]
G1 X-2.8499999999999996 Y3.125
SC_TOOL[0]
G0 X-2.6499999999999986 Y3.125
SC_TOOL[1]
G1 X-2.5999999999999996 Y3.125
SC_TOOL[0]
G0 X4.350000000000001 Y3.125
SC_TOOL[1]
G1 X4.450000000000003 Y3.125
SC_TOOL[0]
G0 X5.150000000000002 Y3.125
SC_TOOL[1]
G1 X5.400000000000002 Y3.125
SC_TOOL[0]
G0 X-11.149999999999999 Y3.1750000000000007
SC_TOOL[1]
G1 X-11.05 Y3.1750000000000007
SC_TOOL[0]
G0 X-8.8 Y3.1750000000000007
SC_TOOL[1]
G1 X-8.75 Y3.1750000000000007
SC_TOOL[0]
G0 X-2.9499999999999993 Y3.1750000000000007
SC_TOOL[1]
G1 X-2.8499999999999996 Y3.1750000000000007
SC_TOOL[0]
G0 X-2.6499999999999986 Y3.1750000000000007
SC_TOOL[1]
G1 X-2.5999999999999996 Y3.1750000000000007
SC_TOOL[0]
G0 X4.350000000000001 Y3.1750000000000007
SC_TOOL[1]
G1 X4.450000000000003 Y3.1750000000000007
SC_TOOL[0]
G0 X5.150000000000002 Y3.1750000000000007
SC_TOOL[1]
G1 X5.200000000000003 Y3.1750000000000007
SC_TOOL[0]
G0 X-11.1 Y3.2249999999999996
SC_TOOL[1]
G1 X-11.0 Y3.2249999999999996
SC_TOOL[0]
G0 X-8.8 Y3.2249999999999996
SC_TOOL[1]
G1 X-8.75 Y3.2249999999999996
SC_TOOL[0]
G0 X-2.8999999999999986 Y3.2249999999999996
SC_TOOL[1]
G1 X-2.75 Y3.2249999999999996
SC_TOOL[0]
G0 X-2.6499999999999986 Y3.2249999999999996
SC_TOOL[1]
G1 X-2.5999999999999996 Y3.2249999999999996
SC_TOOL[0]
G0 X4.350000000000001 Y3.2249999999999996
SC_TOOL[1]
G1 X4.450000000000003 Y3.2249999999999996
SC_TOOL[0]
G0 X5.050000000000001 Y3.2249999999999996
SC_TOOL[1]
G1 X5.200000000000003 Y3.2249999999999996
SC_TOOL[0]
G0 X-11.05 Y3.2750000000000004
SC_TOOL[1]
G1 X-10.95 Y3.2750000000000004
SC_TOOL[0]
G0 X-8.8 Y3.2750000000000004
SC_TOOL[1]
G1 X-8.75 Y3.2750000000000004
SC_TOOL[0]
G0 X-2.8499999999999996 Y3.2750000000000004
SC_TOOL[1]
G1 X-2.75 Y3.2750000000000004
SC_TOOL[0]
G0 X-2.6499999999999986 Y3.2750000000000004
SC_TOOL[1]
G1 X-2.5999999999999996 Y3.2750000000000004
SC_TOOL[0]
G0 X4.350000000000001 Y3.2750000000000004
SC_TOOL[1]
G1 X4.450000000000003 Y3.2750000000000004
SC_TOOL[0]
G0 X4.850000000000001 Y3.2750000000000004
SC_TOOL[1]
G1 X5.100000000000001 Y3.2750000000000004
SC_TOOL[0]
G0 X-11.0 Y3.325000000000001
SC_TOOL[1]
G1 X-10.899999999999999 Y3.325000000000001
SC_TOOL[0]
G0 X-8.8 Y3.325000000000001
SC_TOOL[1]
G1 X-8.75 Y3.325000000000001
SC_TOOL[0]
G0 X-2.799999999999999 Y3.325000000000001
SC_TOOL[1]
G1 X-2.5999999999999996 Y3.325000000000001
SC_TOOL[0]
G0 X4.350000000000001 Y3.325000000000001
SC_TOOL[1]
G1 X4.450000000000003 Y3.325000000000001
SC_TOOL[0]
G0 X4.800000000000001 Y3.325000000000001
SC_TOOL[1]
G1 X5.100000000000001 Y3.325000000000001
SC_TOOL[0]
G0 X-11.0 Y3.375
SC_TOOL[1]
G1 X-10.85 Y3.375
SC_TOOL[0]
G0 X-8.899999999999999 Y3.375
SC_TOOL[1]
G1 X-8.75 Y3.375
SC_TOOL[0]
G0 X-2.75 Y3.375
SC_TOOL[1]
G1 X-2.5999999999999996 Y3.375
SC_TOOL[0]
G0 X4.350000000000001 Y3.375
SC_TOOL[1]
G1 X4.850000000000001 Y3.375
SC_TOOL[0]
G0 X-10.95 Y3.4250000000000007
SC_TOOL[1]
G1 X-10.85 Y3.4250000000000007
SC_TOOL[0]
G0 X-8.899999999999999 Y3.4250000000000007
SC_TOOL[1]
G1 X-8.8 Y3.4250000000000007
SC_TOOL[0]
G0 X-2.6999999999999993 Y3.4250000000000007
SC_TOOL[1]
G1 X-2.6499999999999986 Y3.4250000000000007
SC_TOOL[0]
G0 X4.350000000000001 Y3.4250000000000007
SC_TOOL[1]
G1 X4.850000000000001 Y3.4250000000000007
SC_TOOL[0]
G0 X-10.899999999999999 Y3.4749999999999996
SC_TOOL[1]
G1 X-10.85 Y3.4749999999999996
SC_TOOL[0]
G0 X-8.899999999999999 Y3.4749999999999996
SC_TOOL[1]
G1 X-8.85 Y3.4749999999999996
SC_TOOL[0]
G0 X4.350000000000001 Y3.4749999999999996
SC_TOOL[1]
G1 X4.450000000000003 Y3.4749999999999996
SC_TOOL[0]
G0 X-10.899999999999999 Y3.5250000000000004
SC_TOOL[1]
G1 X-10.85 Y3.5250000000000004
SC_TOOL[0]
G0 X-8.899999999999999 Y3.5250000000000004
SC_TOOL[1]
G1 X-8.85 Y3.5250000000000004
SC_TOOL[0]
G0 X4.350000000000001 Y3.5250000000000004
SC_TOOL[1]
G1 X4.450000000000003 Y3.5250000000000004
SC_TOOL[0]
G0 X-10.899999999999999 Y3.575000000000001
SC_TOOL[1]
G1 X-10.8 Y3.575000000000001
SC_TOOL[0]
G0 X-9.0 Y3.575000000000001
SC_TOOL[1]
G1 X-8.85 Y3.575000000000001
SC_TOOL[0]
G0 X4.350000000000001 Y3.575000000000001
SC_TOOL[1]
G1 X4.450000000000003 Y3.575000000000001
SC_TOOL[0]
G0 X-10.85 Y3.625
SC_TOOL[1]
G1 X-10.7 Y3.625
SC_TOOL[0]
G0 X-9.05 Y3.625
SC_TOOL[1]
G1 X-8.899999999999999 Y3.625
SC_TOOL[0]
G0 X4.300000000000001 Y3.625
SC_TOOL[1]
G1 X4.450000000000003 Y3.625
SC_TOOL[0]
G0 X-10.8 Y3.6750000000000007
SC_TOOL[1]
G1 X-10.649999999999999 Y3.6750000000000007
SC_TOOL[0]
G0 X-9.1 Y3.6750000000000007
SC_TOOL[1]
G1 X-8.95 Y3.6750000000000007
SC_TOOL[0]
G0 X4.25 Y3.6750000000000007
SC_TOOL[1]
G1 X4.450000000000003 Y3.6750000000000007
SC_TOOL[0]
G0 X-10.75 Y3.7249999999999996
SC_TOOL[1]
G1 X-10.649999999999999 Y3.7249999999999996
SC_TOOL[0]
G0 X-9.149999999999999 Y3.7249999999999996
SC_TOOL[1]
G1 X-9.0 Y3.7249999999999996
SC_TOOL[0]
G0 X4.25 Y3.7249999999999996
SC_TOOL[1]
G1 X4.450000000000003 Y3.7249999999999996
SC_TOOL[0]
G0 X-10.7 Y3.7750000000000004
SC_TOOL[1]
G1 X-10.6 Y3.7750000000000004
SC_TOOL[0]
G0 X-9.149999999999999 Y3.7750000000000004
SC_TOOL[1]
G1 X-9.1 Y3.7750000000000004
SC_TOOL[0]
G0 X4.200000000000003 Y3.7750000000000004
SC_TOOL[1]
G1 X4.300000000000001 Y3.7750000000000004
SC_TOOL[0]
G0 X4.350000000000001 Y3.7750000000000004
SC_TOOL[1]
G1 X4.450000000000003 Y3.7750000000000004
SC_TOOL[0]
G0 X-10.649999999999999 Y3.825000000000001
SC_TOOL[1]
G1 X-10.6 Y3.825000000000001
SC_TOOL[0]
G0 X-9.35 Y3.825000000000001
SC_TOOL[1]
G1 X-9.1 Y3.825000000000001
SC_TOOL[0]
G0 X4.150000000000002 Y3.825000000000001
SC_TOOL[1]
G1 X4.25 Y3.825000000000001
SC_TOOL[0]
G0 X4.350000000000001 Y3.825000000000001
SC_TOOL[1]
G1 X4.450000000000003 Y3.825000000000001
SC_TOOL[0]
G0 X-10.649999999999999 Y3.875
SC_TOOL[1]
G1 X-10.55 Y3.875
SC_TOOL[0]
G0 X-9.35 Y3.875
SC_TOOL[1]
G1 X-9.25 Y3.875
SC_TOOL[0]
G0 X4.100000000000001 Y3.875
SC_TOOL[1]
G1 X4.25 Y3.875
SC_TOOL[0]
G0 X4.350000000000001 Y3.875
SC_TOOL[1]
G1 X4.450000000000003 Y3.875
SC_TOOL[0]
G0 X-10.6 Y3.9250000000000007
SC_TOOL[1]
G1 X-9.3 Y3.9250000000000007
SC_TOOL[0]
G0 X4.100000000000001 Y3.9250000000000007
SC_TOOL[1]
G1 X4.200000000000003 Y3.9250000000000007
SC_TOOL[0]
G0 X4.350000000000001 Y3.9250000000000007
SC_TOOL[1]
G1 X4.450000000000003 Y3.9250000000000007
SC_TOOL[0]
G0 X4.100000000000001 Y3.9749999999999996
SC_TOOL[1]
G1 X4.150000000000002 Y3.9749999999999996
SC_TOOL[0]
G0 X4.350000000000001 Y3.9749999999999996
SC_TOOL[1]
G1 X4.450000000000003 Y3.9749999999999996
SC_TOOL[0]
G0 X4.050000000000001 Y4.025
SC_TOOL[1]
G1 X4.150000000000002 Y4.025
SC_TOOL[0]
G0 X4.350000000000001 Y4.025
SC_TOOL[1]
G1 X4.450000000000003 Y4.025
SC_TOOL[0]
G0 X4.050000000000001 Y4.075000000000001
SC_TOOL[1]
G1 X4.100000000000001 Y4.075000000000001
SC_TOOL[0]
G0 X4.350000000000001 Y4.075000000000001
SC_TOOL[1]
G1 X4.450000000000003 Y4.075000000000001
SC_TOOL[0]
G0 X4.050000000000001 Y4.125
SC_TOOL[1]
G1 X4.100000000000001 Y4.125
SC_TOOL[0]
G0 X4.350000000000001 Y4.125
SC_TOOL[1]
G1 X4.450000000000003 Y4.125
SC_TOOL[0]
G0 X4.0 Y4.175000000000001
SC_TOOL[1]
G1 X4.100000000000001 Y4.175000000000001
SC_TOOL[0]
G0 X4.350000000000001 Y4.175000000000001
SC_TOOL[1]
G1 X4.450000000000003 Y4.175000000000001
SC_TOOL[0]
G0 X4.0 Y4.225000000000001
SC_TOOL[1]
G1 X4.100000000000001 Y4.225000000000001
SC_TOOL[0]
G0 X4.350000000000001 Y4.225000000000001
SC_TOOL[1]
G1 X4.450000000000003 Y4.225000000000001
SC_TOOL[0]
G0 X4.0 Y4.275
SC_TOOL[1]
G1 X4.100000000000001 Y4.275
SC_TOOL[0]
G0 X4.350000000000001 Y4.275
SC_TOOL[1]
G1 X4.400000000000002 Y4.275
SC_TOOL[0]
G0 X3.950000000000003 Y4.325000000000001
SC_TOOL[1]
G1 X4.050000000000001 Y4.325000000000001
SC_TOOL[0]
G0 X4.300000000000001 Y4.325000000000001
SC_TOOL[1]
G1 X4.400000000000002 Y4.325000000000001
SC_TOOL[0]
G0 X3.950000000000003 Y4.375
SC_TOOL[1]
G1 X4.050000000000001 Y4.375
SC_TOOL[0]
G0 X4.300000000000001 Y4.375
SC_TOOL[1]
G1 X4.350000000000001 Y4.375
SC_TOOL[0]
G0 X3.900000000000002 Y4.425000000000001
SC_TOOL[1]
G1 X4.0 Y4.425000000000001
SC_TOOL[0]
G0 X4.25 Y4.425000000000001
SC_TOOL[1]
G1 X4.350000000000001 Y4.425000000000001
SC_TOOL[0]
G0 X3.900000000000002 Y4.475000000000001
SC_TOOL[1]
G1 X4.0 Y4.475000000000001
SC_TOOL[0]
G0 X4.25 Y4.475000000000001
SC_TOOL[1]
G1 X4.350000000000001 Y4.475000000000001
SC_TOOL[0]
G0 X3.8500000000000014 Y4.525
SC_TOOL[1]
G1 X3.950000000000003 Y4.525
SC_TOOL[0]
G0 X4.25 Y4.525
SC_TOOL[1]
G1 X4.350000000000001 Y4.525
SC_TOOL[0]
G0 X3.8500000000000014 Y4.575000000000001
SC_TOOL[1]
G1 X3.950000000000003 Y4.575000000000001
SC_TOOL[0]
G0 X4.25 Y4.575000000000001
SC_TOOL[1]
G1 X4.350000000000001 Y4.575000000000001
SC_TOOL[0]
G0 X3.8000000000000007 Y4.625
SC_TOOL[1]
G1 X3.900000000000002 Y4.625
SC_TOOL[0]
G0 X4.25 Y4.625
SC_TOOL[1]
G1 X4.350000000000001 Y4.625
SC_TOOL[0]
G0 X3.8000000000000007 Y4.675000000000001
SC_TOOL[1]
G1 X3.900000000000002 Y4.675000000000001
SC_TOOL[0]
G0 X4.200000000000003 Y4.675000000000001
SC_TOOL[1]
G1 X4.300000000000001 Y4.675000000000001
SC_TOOL[0]
G0 X3.75 Y4.725000000000001
SC_TOOL[1]
G1 X3.8500000000000014 Y4.725000000000001
SC_TOOL[0]
G0 X4.200000000000003 Y4.725000000000001
SC_TOOL[1]
G1 X4.25 Y4.725000000000001
SC_TOOL[0]
G0 X3.75 Y4.775
SC_TOOL[1]
G1 X3.8500000000000014 Y4.775
SC_TOOL[0]
G0 X4.200000000000003 Y4.775
SC_TOOL[1]
G1 X4.25 Y4.775
SC_TOOL[0]
G0 X3.75 Y4.825000000000001
SC_TOOL[1]
G1 X3.8000000000000007 Y4.825000000000001
SC_TOOL[0]
G0 X4.200000000000003 Y4.825000000000001
SC_TOOL[1]
G1 X4.25 Y4.825000000000001
SC_TOOL[0]
G0 X3.75 Y4.875
SC_TOOL[1]
G1 X3.8000000000000007 Y4.875
SC_TOOL[0]
G0 X4.200000000000003 Y4.875
SC_TOOL[1]
G1 X4.25 Y4.875
SC_TOOL[0]
G0 X3.75 Y4.925000000000001
SC_TOOL[1]
G1 X3.8000000000000007 Y4.925000000000001
SC_TOOL[0]
G0 X4.200000000000003 Y4.925000000000001
SC_TOOL[1]
G1 X4.25 Y4.925000000000001
SC_TOOL[0]
G0 X3.75 Y4.975000000000001
SC_TOOL[1]
G1 X3.8000000000000007 Y4.975000000000001
SC_TOOL[0]
G0 X4.150000000000002 Y4.975000000000001
SC_TOOL[1]
G1 X4.25 Y4.975000000000001
SC_TOOL[0]
G0 X3.75 Y5.025
SC_TOOL[1]
G1 X3.8000000000000007 Y5.025
SC_TOOL[0]
G0 X4.100000000000001 Y5.025
SC_TOOL[1]
G1 X4.200000000000003 Y5.025
SC_TOOL[0]
G0 X3.75 Y5.075000000000001
SC_TOOL[1]
G1 X3.8000000000000007 Y5.075000000000001
SC_TOOL[0]
G0 X4.100000000000001 Y5.075000000000001
SC_TOOL[1]
G1 X4.150000000000002 Y5.075000000000001
SC_TOOL[0]
G0 X3.75 Y5.125
SC_TOOL[1]
G1 X4.150000000000002 Y5.125
SC_TOOL[0]
G0 X3.75 Y5.175000000000001
SC_TOOL[1]
G1 X3.900000000000002 Y5.175000000000001
SC_TOOL[0]
G0 X3.75 Y5.225000000000001
SC_TOOL[1]
G1 X3.900000000000002 Y5.225000000000001
ENDDFS

